{
  "metadata": {
    "name": "Luxury DeCollection",
    "lastOpened": 0,
    "created": 1540804348171
  },
  "iconSets": [
    {
      "selection": [
        {
          "order": 72,
          "id": 21,
          "name": "wine-bar",
          "prevSize": 32,
          "code": 59669,
          "tempChar": ""
        },
        {
          "order": 71,
          "id": 20,
          "name": "baby-equipment",
          "prevSize": 32,
          "code": 59668,
          "tempChar": ""
        },
        {
          "order": 69,
          "id": 19,
          "name": "pets-allowed",
          "prevSize": 32,
          "code": 59667,
          "tempChar": ""
        },
        {
          "order": 66,
          "id": 18,
          "name": "events-not-allowed",
          "prevSize": 32,
          "code": 59664,
          "tempChar": ""
        },
        {
          "order": 67,
          "id": 17,
          "name": "pets-not-allowed",
          "prevSize": 32,
          "code": 59665,
          "tempChar": ""
        },
        {
          "order": 18,
          "id": 16,
          "name": "dining",
          "prevSize": 32,
          "code": 59648,
          "tempChar": ""
        },
        {
          "order": 2,
          "id": 15,
          "name": "air-conditioned",
          "prevSize": 32,
          "code": 59649,
          "tempChar": ""
        },
        {
          "order": 3,
          "id": 14,
          "name": "surface",
          "prevSize": 32,
          "code": 59650,
          "tempChar": ""
        },
        {
          "order": 4,
          "id": 13,
          "name": "security",
          "prevSize": 32,
          "code": 59651,
          "tempChar": ""
        },
        {
          "order": 5,
          "id": 12,
          "name": "outdoor",
          "prevSize": 32,
          "code": 59652,
          "tempChar": ""
        },
        {
          "order": 40,
          "id": 11,
          "name": "wellness",
          "prevSize": 32,
          "code": 59653,
          "tempChar": ""
        },
        {
          "order": 41,
          "id": 10,
          "name": "tennis",
          "prevSize": 32,
          "code": 59654,
          "tempChar": ""
        },
        {
          "order": 42,
          "id": 9,
          "name": "kitchen",
          "prevSize": 32,
          "code": 59655,
          "tempChar": ""
        },
        {
          "order": 43,
          "id": 8,
          "name": "living-area",
          "prevSize": 32,
          "code": 59656,
          "tempChar": ""
        },
        {
          "order": 44,
          "id": 7,
          "name": "events",
          "prevSize": 32,
          "code": 59657,
          "tempChar": ""
        },
        {
          "order": 45,
          "id": 6,
          "name": "entertainment",
          "prevSize": 32,
          "code": 59658,
          "tempChar": ""
        },
        {
          "order": 46,
          "id": 5,
          "name": "games",
          "prevSize": 32,
          "code": 59659,
          "tempChar": ""
        },
        {
          "order": 47,
          "id": 4,
          "name": "bedrooms",
          "prevSize": 32,
          "code": 59660,
          "tempChar": ""
        },
        {
          "order": 48,
          "id": 3,
          "name": "wifi",
          "prevSize": 32,
          "code": 59661,
          "tempChar": ""
        },
        {
          "order": 49,
          "id": 2,
          "name": "swimming-pool",
          "prevSize": 32,
          "code": 59662,
          "tempChar": ""
        },
        {
          "order": 50,
          "id": 1,
          "name": "outdoor1",
          "prevSize": 32,
          "code": 59666,
          "tempChar": ""
        },
        {
          "order": 17,
          "id": 0,
          "name": "wheel-chair",
          "prevSize": 32,
          "code": 59663,
          "tempChar": ""
        }
      ],
      "id": 0,
      "metadata": {
        "name": "Untitled Set",
        "importSize": {
          "width": 128,
          "height": 128
        }
      },
      "height": 1024,
      "prevSize": 32,
      "icons": [
        {
          "id": 21,
          "paths": [
            "M368.8 288.8c-8.8 0-16-7.2-16-16v-142.4l-137.6-97.6c-7.2-4.8-8.8-15.2-4-22.4s15.2-8.8 22.4-4l144 102.4c4 3.2 6.4 8 6.4 12.8v150.4c0.8 9.6-6.4 16.8-15.2 16.8z",
            "M563.2 942.4h-102.4c-8.8 0-16-7.2-16-16v-322.4l-310.4-320c-4.8-4.8-5.6-11.2-3.2-17.6s8-9.6 14.4-9.6h732c6.4 0 12 4 14.4 9.6s1.6 12.8-3.2 17.6l-310.4 320v322.4c0.8 8.8-6.4 16-15.2 16zM476.8 910.4h69.6v-313.6c0-4 1.6-8 4.8-11.2l288.8-296.8h-656l288.8 297.6c3.2 3.2 4.8 7.2 4.8 11.2v312.8z",
            "M512 565.6c-2.4 0-4-0.8-5.6-2.4-3.2-3.2-3.2-8 0-11.2l214.4-220.8c3.2-3.2 8-3.2 11.2 0s3.2 8 0 11.2l-214.4 220.8c-1.6 1.6-3.2 2.4-5.6 2.4z",
            "M776.8 288.8h-256.8c-7.2 0-13.6-4.8-15.2-12-2.4-11.2-4-22.4-4-33.6 0-81.6 66.4-148 148-148s148 66.4 148 148c0 11.2-1.6 22.4-4 33.6-2.4 6.4-8.8 12-16 12zM533.6 256.8h229.6c0.8-4.8 0.8-9.6 0.8-14.4 0-64-52-116-116-116s-116 52-116 116c0.8 4.8 0.8 9.6 1.6 14.4z",
            "M684 1020h-344c-8.8 0-16-7.2-16-16v-77.6c0-8.8 7.2-16 16-16h344c8.8 0 16 7.2 16 16v77.6c0 8.8-7.2 16-16 16zM356 988h312v-45.6h-312v45.6z"
          ],
          "attrs": [
            {},
            {},
            {},
            {},
            {}
          ],
          "isMulticolor": false,
          "isMulticolor2": false,
          "grid": 0,
          "tags": [
            "82"
          ]
        },
        {
          "id": 20,
          "paths": [
            "M595.2 954.4c-10.4-4-21.6 0.8-25.6 11.2-3.2 8.8-12 14.4-21.6 14.4h-72c-9.6 0-18.4-5.6-21.6-14.4-4-10.4-16-15.2-25.6-11.2-10.4 4-15.2 15.2-11.2 25.6 9.6 24 32 39.2 58.4 39.2h72c25.6 0 48.8-15.2 58.4-39.2 4-10.4-0.8-21.6-11.2-25.6z",
            "M828 852c-5.6-28-22.4-52-47.2-65.6 4.8-4 8.8-8 12.8-12 18.4-21.6 27.2-50.4 22.4-79.2-7.2-46.4-26.4-89.6-56.8-124.8-22.4-26.4-50.4-48-81.6-63.2 38.4-40.8 61.6-95.2 61.6-155.2 0-104-70.4-192-165.6-218.4 12.8-15.2 20-35.2 20-55.2 0-40-32.8-72.8-72.8-72.8v0c-16 0-31.2 5.6-43.2 15.2-12.8 10.4-19.2 25.6-19.2 41.6 0 11.2 8.8 20 20 20s20-8.8 20-20c0-4.8 1.6-8.8 5.6-12s10.4-5.6 17.6-5.6v0c18.4 0 33.6 15.2 33.6 33.6 0 12.8-4.8 24-13.6 32.8s-20.8 13.6-32.8 13.6v0c-0.8 0-0.8 0-1.6 0-123.2 3.2-222.4 104-222.4 227.2 0 60 23.2 114.4 61.6 155.2-31.2 15.2-59.2 36.8-81.6 63.2-30.4 35.2-49.6 78.4-56.8 124.8-4 28.8 4 57.6 22.4 79.2 4 4.8 8 8.8 12.8 12-24.8 14.4-41.6 38.4-47.2 65.6-5.6 28 1.6 56.8 19.2 79.2l42.4 54.4c16.8 21.6 43.2 33.6 69.6 33.6 15.2 0 30.4-4 44-12 37.6-21.6 53.6-68.8 37.6-108.8l-25.6-64c-1.6-4-4-8-6.4-12h145.6c11.2 0 20-8.8 20-20s-8.8-20-20-20h-183.2v-41.6c0-5.6 4-9.6 9.6-9.6h326.4c5.6 0 9.6 4 9.6 9.6v44.8c-20 10.4-35.2 28-44 48.8l-25.6 64c-16 40.8 0 87.2 37.6 108.8 13.6 8 28.8 12 44 12 26.4 0 52.8-12 69.6-33.6l42.4-54.4c17.6-22.4 24.8-51.2 19.2-79.2zM324 352c0-103.2 84-188 188-188 103.2 0 188 84 188 188 0 103.2-84 188-188 188-103.2 0-188-84.8-188-188zM345.6 848.8l25.6 64c8.8 22.4 0 48-20.8 60s-47.2 6.4-62.4-12l-42.4-54.4c-10.4-13.6-14.4-30.4-11.2-47.2s13.6-31.2 28-39.2 32-10.4 48-4.8c16.8 6.4 29.6 18.4 35.2 33.6zM675.2 652c-11.2 0-20 8.8-20 20v20h-286.4v-20c0-11.2-8.8-20-20-20s-20 8.8-20 20v24c-17.6 8-29.6 24.8-29.6 44.8v28c-15.2-1.6-28.8-8.8-39.2-20-11.2-12.8-16-30.4-13.6-47.2 11.2-75.2 61.6-137.6 132-164.8 37.6 27.2 83.2 43.2 132.8 43.2s95.2-16 132.8-43.2c70.4 27.2 120.8 89.6 132 164.8 2.4 16.8-2.4 34.4-13.6 47.2-9.6 11.2-24 18.4-39.2 20v-28c0-20-12-37.6-29.6-44.8v-24c1.6-11.2-7.2-20-18.4-20zM777.6 906.4l-42.4 54.4c-14.4 19.2-41.6 24-62.4 12s-29.6-37.6-20.8-60l25.6-64c6.4-16 19.2-28 35.2-33.6 6.4-2.4 12.8-3.2 19.2-3.2 10.4 0 20 2.4 28.8 8 14.4 8.8 24.8 22.4 28 39.2s-0.8 34.4-11.2 47.2z",
            "M614.4 788c-4-4-8.8-5.6-14.4-5.6s-10.4 2.4-14.4 5.6c-4 4-5.6 8.8-5.6 14.4s2.4 10.4 5.6 14.4c4 4 8.8 5.6 14.4 5.6s10.4-2.4 14.4-5.6c4-4 5.6-8.8 5.6-14.4s-1.6-10.4-5.6-14.4z",
            "M566.4 420c-8.8-7.2-20.8-5.6-28 3.2-6.4 8-16 12.8-26.4 12.8s-20-4.8-26.4-12.8c-7.2-8.8-19.2-9.6-28-3.2-8.8 7.2-9.6 19.2-3.2 28 14.4 17.6 35.2 27.2 57.6 27.2s43.2-10.4 57.6-27.2c6.4-8.8 5.6-21.6-3.2-28z",
            "M461.6 338.4c-17.6-17.6-47.2-17.6-64.8 0-8 8-8 20 0 28s20 8 28 0c2.4-2.4 6.4-2.4 8.8 0 4 4 8.8 5.6 14.4 5.6 4.8 0 10.4-1.6 14.4-5.6 7.2-8 7.2-20.8-0.8-28z",
            "M627.2 338.4c-17.6-17.6-47.2-17.6-64.8 0-8 8-8 20 0 28 4 4 8.8 5.6 14.4 5.6 4.8 0 10.4-1.6 14.4-5.6 2.4-2.4 6.4-2.4 8.8 0 8 8 20 8 28 0 7.2-8 7.2-20.8-0.8-28z"
          ],
          "attrs": [
            {},
            {},
            {},
            {},
            {},
            {}
          ],
          "isMulticolor": false,
          "isMulticolor2": false,
          "grid": 0,
          "tags": [
            "baby-equipment"
          ]
        },
        {
          "id": 19,
          "paths": [
            "M609.6 580.8c0 10.604-8.596 19.2-19.2 19.2s-19.2-8.596-19.2-19.2c0-10.604 8.596-19.2 19.2-19.2s19.2 8.596 19.2 19.2z",
            "M764.8 667.2c-18.4-18.4-62.4-68-97.6-148-26.4-63.2-87.2-104-155.2-104s-128.8 40.8-154.4 103.2c-44 100.8-104 154.4-104.8 155.2 0 0 0 0 0 0-35.2 32-56 77.6-56 124.8 0 58.4 28 108.8 76 140.8 44.8 29.6 100 39.2 152 24.8 26.4-7.2 56-11.2 87.2-11.2s62.4 4 88 11.2c50.4 14.4 105.6 6.4 151.2-24 48.8-32 76.8-83.2 76.8-141.6 0.8-52-22.4-99.2-63.2-131.2zM730.4 907.2c-35.2 23.2-78.4 30.4-119.2 18.4-29.6-8-64-12.8-99.2-12.8-34.4 0-68 4-97.6 12-40.8 11.2-84.8 4-120-19.2-36.8-24.8-58.4-63.2-58.4-108 0-36.8 15.2-71.2 42.4-95.2 4-4 68-60.8 115.2-168.8 0 0 0 0 0 0 20-48 66.4-79.2 118.4-79.2s98.4 31.2 118.4 79.2c0 0 0 0 0 0 38.4 88 88 142.4 107.2 161.6 0.8 0.8 0.8 0.8 1.6 1.6 31.2 24.8 49.6 61.6 49.6 101.6 0.8 45.6-20.8 84.8-58.4 108.8z",
            "M643.2 639.2c-5.6-8.8-18.4-12-27.2-5.6s-12 18.4-5.6 27.2c29.6 45.6 57.6 76 72 90.4 8 8 20 7.2 28 0 8-8 7.2-20 0-28-12.8-12.8-39.2-40.8-67.2-84z",
            "M448.8 320c18.4-32.8 26.4-76.8 21.6-120-10.4-83.2-68-154.4-132.8-146.4-29.6 3.2-55.2 22.4-73.6 54.4-18.4 32.8-26.4 76.8-21.6 120 16 136.8 144 200.8 206.4 92zM298.4 127.2c10.4-18.4 27.2-35.2 48.8-35.2 38.4 0 76.8 52 84 112.8 4 35.2-1.6 69.6-16.8 96-44.8 78.4-122.4 12-133.6-77.6-3.2-35.2 2.4-70.4 17.6-96z",
            "M261.6 530.4c5.6-35.2-1.6-73.6-19.2-108.8-18.4-35.2-45.6-63.2-77.6-78.4-33.6-16.8-68-17.6-96.8-2.4s-48 43.2-54.4 80.8c-5.6 35.2 1.6 73.6 19.2 108.8 18.4 35.2 45.6 63.2 77.6 78.4 31.2 15.2 66.4 18.4 96.8 2.4 28.8-15.2 48-43.2 54.4-80.8zM188.8 576.8c-17.6 8.8-40 8-61.6-2.4-24-12-45.6-33.6-60-61.6s-20-57.6-15.2-84c4-24.8 16-43.2 33.6-52 0 0 0 0 0 0 19.2-10.4 42.4-7.2 61.6 2.4 24 12 45.6 33.6 60 61.6s20 57.6 15.2 84c-4 24-16 42.4-33.6 52z",
            "M658.4 375.2c59.2 0 113.6-64.8 123.2-147.2 10.4-88-33.6-174.4-104-174.4-59.2 0-113.6 64.8-123.2 147.2-10.4 88 33.6 174.4 104 174.4zM592.8 205.6c7.2-61.6 46.4-112.8 84.8-112.8 1.6 0 3.2 0 4.8 0 20.8 2.4 36.8 20.8 46.4 39.2 12.8 25.6 18.4 58.4 14.4 91.2-7.2 63.2-49.6 117.6-88.8 112.8 0 0 0 0 0 0-17.6-2.4-34.4-16-46.4-39.2-13.6-25.6-18.4-58.4-15.2-91.2z",
            "M1010.4 421.6c-12-76-81.6-112.8-151.2-78.4-65.6 32-108.8 115.2-96.8 187.2 12.8 76.8 82.4 112 151.2 78.4 66.4-32 108.8-115.2 96.8-187.2zM896.8 573.6c-22.4 11.2-44 12-61.6 2.4v0c-17.6-8.8-29.6-28-33.6-52-8.8-55.2 24.8-120.8 75.2-145.6 46.4-22.4 87.2-1.6 95.2 49.6 8.8 55.2-24.8 120.8-75.2 145.6z"
          ],
          "attrs": [
            {},
            {},
            {},
            {},
            {},
            {},
            {}
          ],
          "isMulticolor": false,
          "isMulticolor2": false,
          "grid": 0,
          "tags": [
            "pets"
          ]
        },
        {
          "id": 18,
          "paths": [
            "M512 132.8c-4 0-7.2 1.6-9.6 4.8l-1.6 2.4c-8 12-33.6 48.8-33.6 68.8 0 24.8 20 44.8 44.8 44.8 12 0 24-4.8 32-13.6s12-20 12-31.2c0-23.2-34.4-70.4-34.4-70.4-2.4-4-6.4-5.6-9.6-5.6zM512 229.6c-11.2 0-20.8-9.6-20.8-20.8 0-6.4 8.8-24 20.8-42.4 12 18.4 20.8 36 20.8 42.4 0 12-8.8 20.8-20.8 20.8z",
            "M644.8 132.8c-4 0-7.2 1.6-9.6 4.8l-1.6 2.4c-8 12-33.6 48.8-33.6 68.8 0 24.8 20 44.8 44.8 44.8 12 0 23.2-4.8 31.2-12.8 8-8.8 12.8-20 12.8-32 0-23.2-34.4-70.4-34.4-70.4-2.4-4-6.4-5.6-9.6-5.6zM645.6 229.6c-11.2 0-20.8-9.6-20.8-20.8 0-6.4 8.8-24 20.8-42.4 12 19.2 20 36 20.8 42.4 0 12-9.6 20.8-20.8 20.8z",
            "M378.4 132.8c-4 0-7.2 1.6-9.6 4.8l-1.6 2.4c-8 12-33.6 48.8-33.6 68.8 0 24.8 20 44.8 44.8 44.8 12 0 24-4.8 32-13.6s12-20 12-31.2c0-23.2-34.4-70.4-34.4-70.4-1.6-4-6.4-5.6-9.6-5.6zM379.2 229.6c-11.2 0-20.8-9.6-20.8-20.8 0-6.4 8.8-24 20.8-42.4 12 18.4 20.8 36 20.8 42.4 0 12-8.8 20.8-20.8 20.8z",
            "M512 7.2c-280 0-508.8 228-508.8 508.8s228 508.8 508.8 508.8c280.8 0 508.8-228 508.8-508.8s-228-508.8-508.8-508.8zM512 973.6c-252 0-457.6-205.6-457.6-457.6 0-104.8 35.2-201.6 95.2-279.2l189.6 189.6v31.2h-12.8c-25.6 0-48.8 12.8-63.2 34.4-8 12-12 26.4-12 40.8v192.8h-3.2c-25.6 0-47.2 20.8-47.2 47.2 0 25.6 20.8 47.2 47.2 47.2h484l59.2 59.2c-77.6 59.2-174.4 94.4-279.2 94.4zM370.4 457.6h-7.2v-7.2l7.2 7.2zM363.2 380.8v-87.2h32v119.2l-32-32zM395.2 482.4l128 128c-3.2 0.8-6.4 0.8-9.6 0.8-10.4 0-20.8-4-28.8-10.4-7.2-5.6-12.8-13.6-19.2-21.6l-0.8-0.8c-6.4-8.8-14.4-19.2-24.8-26.4-8.8-6.4-17.6-9.6-28-9.6-12.8 0-24 5.6-32.8 15.2-4 4-7.2 9.6-10.4 14.4-0.8 1.6-2.4 3.2-3.2 4.8-4 6.4-7.2 12-12 16.8-6.4 6.4-13.6 9.6-20.8 10.4-6.4 0-12.8-2.4-16.8-7.2s-7.2-13.6-9.6-19.2c-2.4-8-6.4-18.4-10.4-29.6-3.2-8-5.6-16.8-8.8-24.8l-5.6-16c0-0.8 0.8-0.8 0.8-1.6 9.6-14.4 25.6-23.2 42.4-23.2h70.4zM540 482.4h159.2c16.8 0 32.8 8 42.4 22.4 0 0 0 0.8 0.8 0.8-0.8 4-2.4 7.2-3.2 10.4-0.8 2.4-0.8 4-1.6 4.8-4.8 19.2-10.4 36-20.8 44-3.2 2.4-7.2 3.2-11.2 3.2-8.8 0-18.4-4.8-27.2-13.6l-4-4c-4-4-8-8-12.8-11.2-8.8-5.6-18.4-6.4-25.6-6.4h-5.6c-16 0.8-29.6 2.4-41.6 13.6-4.8 4.8-8 11.2-11.2 17.6-0.8 0.8-0.8 1.6-1.6 2.4 0 0.8-0.8 0.8-0.8 1.6-3.2 4.8-5.6 9.6-8.8 13.6l-101.6-99.2h75.2zM496 457.6v-164h32v164h-32zM628.8 457.6v-164h32v164h-32zM662.4 749.6l45.6 45.6h-460c-12.8 0-23.2-10.4-23.2-23.2s10.4-23.2 23.2-23.2h414.4zM275.2 725.6v-192.8c0-2.4 0-4 0.8-6.4 6.4 20 13.6 40 18.4 53.6v0c2.4 7.2 5.6 16.8 11.2 23.2 6.4 8 16 12 27.2 12 11.2-0.8 21.6-5.6 29.6-14.4 6.4-6.4 10.4-13.6 13.6-18.4 1.6-1.6 2.4-3.2 4-5.6 3.2-4 5.6-8 8.8-11.2 6.4-6.4 14.4-9.6 23.2-9.6 6.4 0 13.6 2.4 20 6.4 8.8 6.4 16 15.2 21.6 24l1.6 2.4c5.6 8 12 16 20 22.4 11.2 8.8 23.2 13.6 37.6 13.6 6.4 0 13.6-1.6 20.8-3.2l104 104h-362.4zM707.2 725.6l-133.6-134.4c4-4.8 8-10.4 11.2-16.8 0.8-0.8 0.8-1.6 1.6-2.4 0-0.8 0.8-1.6 1.6-2.4 3.2-6.4 6.4-11.2 9.6-14.4 8-8.8 20-9.6 32-9.6h4.8c6.4 0 12.8 0 19.2 4 3.2 1.6 5.6 4 8 7.2 0.8 0.8 1.6 1.6 2.4 2.4l4 4c10.4 10.4 23.2 16.8 33.6 16.8 0.8 0 1.6 0 2.4 0 7.2 0 13.6-2.4 19.2-6.4 14.4-9.6 20.8-28.8 25.6-49.6 0.8 3.2 0.8 5.6 0.8 8.8v192.8h-42.4zM777.6 795.2l-45.6-45.6h44c12.8 0 23.2 10.4 23.2 23.2 0 12-9.6 21.6-21.6 22.4zM828.8 846.4l-32-32c16-8 26.4-24 26.4-42.4 0-25.6-20.8-47.2-47.2-47.2h-2.4v-192c0-14.4-4.8-28.8-12.8-42.4-14.4-20.8-37.6-32.8-61.6-32.8h-13.6v-176c0-6.4-5.6-12-12-12h-56c-6.4 0-12 5.6-12 12v176h-53.6v-176c0-6.4-5.6-12-12-12h-56c-6.4 0-12 5.6-12 12v176h-32l-20.8-20.8v-155.2c0-6.4-5.6-12-12-12h-56c-6.4 0-12 5.6-12 12v75.2l-157.6-157.6c83.2-87.2 200.8-141.6 330.4-141.6 252.8 0 457.6 205.6 457.6 457.6 0.8 130.4-53.6 248-140.8 331.2z"
          ],
          "attrs": [
            {},
            {},
            {},
            {}
          ],
          "isMulticolor": false,
          "isMulticolor2": false,
          "grid": 0,
          "tags": [
            "events-not-allowed"
          ]
        },
        {
          "id": 17,
          "paths": [
            "M591.2 568.8c0 9.278-7.522 16.8-16.8 16.8s-16.8-7.522-16.8-16.8c0-9.278 7.522-16.8 16.8-16.8s16.8 7.522 16.8 16.8z",
            "M314.4 528.8c4.8-28-0.8-59.2-15.2-87.2s-36.8-50.4-62.4-63.2c-14.4-7.2-28.8-10.4-42.4-10.4-12.8 0-24.8 3.2-36 8.8-23.2 12-39.2 35.2-44 64.8-4.8 28 0.8 59.2 15.2 87.2s36.8 50.4 62.4 63.2c14.4 7.2 28.8 10.4 42.4 10.4v0c12.8 0 24.8-3.2 36-8.8 23.2-12 39.2-34.4 44-64.8zM173.6 407.2v0c6.4-3.2 12.8-4.8 20-4.8 8.8 0 18.4 2.4 28 7.2 19.2 9.6 36 26.4 47.2 48s16 45.6 12 66.4c-3.2 19.2-12 33.6-26.4 40.8-13.6 7.2-31.2 6.4-48-2.4-19.2-9.6-36-26.4-47.2-48s-16-45.6-12-66.4c4-20 12.8-33.6 26.4-40.8z",
            "M697.6 174.4c-15.2-16.8-33.6-25.6-53.6-25.6-48 0-91.2 52-99.2 118.4-4.8 44 6.4 87.2 30.4 114.4 15.2 16.8 33.6 25.6 53.6 25.6 48 0 91.2-52 99.2-118.4 4.8-44-6.4-88-30.4-114.4zM644 182.4c1.6 0 2.4 0 4 0 19.2 2.4 32 22.4 36 30.4 10.4 20 14.4 46.4 11.2 72-5.6 47.2-36 88.8-65.6 88.8-1.6 0-2.4 0-4 0-13.6-1.6-26.4-12.8-36-30.4-10.4-20-14.4-46.4-11.2-72 5.6-48.8 35.2-88.8 65.6-88.8z",
            "M909.6 442.4c-7.2-44-39.2-73.6-79.2-73.6-14.4 0-28.8 3.2-42.4 10.4-52.8 25.6-87.2 92-77.6 150.4 7.2 44.8 38.4 73.6 79.2 73.6 14.4 0 28.8-3.2 42.4-10.4 53.6-26.4 87.2-92.8 77.6-150.4zM802.4 408.8c9.6-4.8 19.2-7.2 28-7.2 24 0 41.6 17.6 46.4 45.6 7.2 43.2-20 95.2-59.2 114.4-17.6 8.8-34.4 9.6-48 2.4v0c-13.6-7.2-23.2-21.6-26.4-40.8-6.4-42.4 20.8-95.2 59.2-114.4z",
            "M512 11.2c-278.4 0-505.6 227.2-505.6 506.4s227.2 506.4 505.6 506.4 506.4-227.2 506.4-506.4c0-279.2-227.2-506.4-506.4-506.4zM731.2 751.2l-55.2-55.2c0-0.8 0-1.6 0-2.4 0-4.8-1.6-8.8-4.8-12-10.4-10.4-31.2-32.8-52.8-66.4-3.2-4.8-8-8-14.4-8-3.2 0-6.4 0.8-8.8 2.4-0.8 0.8-1.6 1.6-2.4 2.4l-129.6-129.6c15.2-8 32-12.8 49.6-12.8 40.8 0 77.6 24 92.8 62.4v0c30.4 70.4 69.6 113.6 85.6 128.8 0.8 0.8 0.8 0.8 1.6 1.6 24.8 19.2 39.2 48 39.2 79.2-0.8 3.2-0.8 6.4-0.8 9.6zM712.8 801.6c-7.2 9.6-16.8 18.4-27.2 25.6-18.4 12.8-40.8 19.2-63.2 19.2-10.4 0-20.8-1.6-30.4-4-24-6.4-51.2-10.4-79.2-10.4-27.2 0-54.4 3.2-77.6 9.6-9.6 2.4-20 4-30.4 4-23.2 0-44.8-6.4-64-19.2-29.6-20-45.6-49.6-45.6-84.8 0-28.8 12-56 33.6-75.2 2.4-1.6 53.6-48 91.2-134.4v0c2.4-5.6 4.8-10.4 8-15.2l284.8 284.8zM343.2 208.8c5.6-10.4 18.4-27.2 37.6-27.2 29.6 0 60 40.8 65.6 88.8 3.2 28-1.6 55.2-12.8 75.2-10.4 17.6-23.2 27.2-37.6 27.2-30.4 0-60-40.8-66.4-88.8-2.4-27.2 2.4-55.2 13.6-75.2zM56.8 517.6c0-104 35.2-200.8 94.4-277.6l252 252c-5.6 8-10.4 16.8-14.4 26.4-35.2 80-82.4 122.4-83.2 122.4-28.8 25.6-44.8 61.6-44.8 100 0 46.4 22.4 87.2 60.8 112.8 24.8 16 52.8 24.8 82.4 24.8 13.6 0 26.4-1.6 39.2-5.6 20.8-5.6 44.8-8.8 68.8-8.8 24.8 0 48.8 3.2 69.6 8.8 12.8 4 26.4 5.6 40 5.6 0 0 0 0 0 0 28.8 0 57.6-8.8 81.6-24.8 12.8-8.8 24-18.4 32.8-30.4l53.6 53.6c-76.8 59.2-172.8 94.4-277.6 94.4-251.2 2.4-455.2-202.4-455.2-453.6zM827.2 847.2l-67.2-67.2c3.2-12 5.6-24.8 5.6-37.6 0-41.6-18.4-80-51.2-105.6-14.4-13.6-49.6-53.6-77.6-117.6-20.8-50.4-69.6-82.4-124-82.4-27.2 0-52.8 8-74.4 22.4l-52.8-52.8c4 0.8 8 0.8 11.2 0.8 0 0 0 0 0 0 26.4 0 49.6-16 65.6-44 15.2-26.4 21.6-61.6 17.6-96-8-66.4-51.2-118.4-99.2-118.4-2.4 0-5.6 0-8 0.8-24 3.2-44.8 18.4-59.2 44-15.2 26.4-21.6 61.6-17.6 96 1.6 13.6 4 25.6 8 36.8l-120.8-123.2c83.2-87.2 200-140.8 328.8-140.8 251.2 0 455.2 204 455.2 455.2 0.8 129.6-53.6 246.4-140 329.6z"
          ],
          "attrs": [
            {},
            {},
            {},
            {},
            {}
          ],
          "isMulticolor": false,
          "isMulticolor2": false,
          "grid": 0,
          "tags": [
            "pets-not-allowed"
          ]
        },
        {
          "id": 16,
          "paths": [
            "M832 422.4h-640c-8.8 0-16-7.2-16-16s7.2-16 16-16h640c8.8 0 16 7.2 16 16s-7.2 16-16 16z",
            "M641.6 879.2h-259.2c-8.8 0-16-7.2-16-16s7.2-16 16-16h258.4c8.8 0 16 7.2 16 16s-6.4 16-15.2 16z",
            "M698.4 879.2c-8.8 0-16-7.2-16-16v-293.6c0-8.8 7.2-16 16-16h280.8c8.8 0 16 7.2 16 16v276.8c0 8.8-7.2 16-16 16s-16-7.2-16-16v-260.8h-248.8v277.6c0 8.8-7.2 16-16 16z",
            "M979.2 585.6c0 0-0.8 0-0.8 0-8.8-0.8-15.2-8-15.2-16.8l24.8-409.6c0.8-8.8 8-15.2 16.8-15.2 8.8 0.8 15.2 8 15.2 16.8l-24.8 409.6c0 8.8-7.2 15.2-16 15.2z",
            "M325.6 879.2c-8.8 0-16-7.2-16-16v-277.6h-248.8v260.8c0 8.8-7.2 16-16 16s-16-7.2-16-16v-276.8c0-8.8 7.2-16 16-16h280.8c8.8 0 16 7.2 16 16v293.6c0 8.8-7.2 16-16 16z",
            "M44.8 585.6c-8 0-15.2-6.4-16-15.2l-24.8-408.8c-0.8-8.8 6.4-16 15.2-16.8s16 6.4 16.8 15.2l24.8 409.6c0.8 8.8-6.4 16-15.2 16.8 0-0.8-0.8-0.8-0.8-0.8z",
            "M648.8 375.2c-0.8 0-1.6 0-2.4 0-24-4-48.8-25.6-49.6-53.6 0.8-20.8 4-42.4 10.4-64.8 1.6-7.2 8-12 15.2-12h66.4c7.2 0 13.6 4.8 15.2 12 6.4 22.4 9.6 43.2 10.4 64-0.8 28.8-25.6 50.4-49.6 54.4-0.8 0-1.6 0-2.4 0l-13.6 0c0 0 0 0 0 0zM634.4 276.8c-3.2 15.2-5.6 30.4-5.6 44.8 0 9.6 11.2 19.2 21.6 21.6h9.6c10.4-2.4 21.6-12 21.6-22.4 0-13.6-2.4-28-5.6-44h-41.6z",
            "M361.6 375.2c-0.8 0-1.6 0-2.4 0-24-4-48.8-25.6-49.6-53.6 0.8-20.8 4-42.4 10.4-64.8 1.6-7.2 8-12 15.2-12h66.4c7.2 0 13.6 4.8 15.2 12 6.4 22.4 9.6 43.2 10.4 64-0.8 28.8-25.6 50.4-49.6 54.4-0.8 0-1.6 0-2.4 0l-13.6 0c0 0 0 0 0 0zM347.2 276.8c-3.2 15.2-5.6 30.4-5.6 44.8 0 9.6 11.2 19.2 21.6 21.6h9.6c10.4-2.4 21.6-12 21.6-22.4 0-13.6-2.4-28-5.6-44h-41.6z",
            "M528.8 260.8v112.8h-33.6v-112.8h33.6zM528.8 228.8h-33.6c-17.6 0-32 14.4-32 32v112.8c0 17.6 14.4 32 32 32h33.6c17.6 0 32-14.4 32-32v-112.8c0-17.6-14.4-32-32-32v0z",
            "M512 264.8c-8.8 0-16-7.2-16-16v-66.4c0-8.8 7.2-16 16-16s16 7.2 16 16v66.4c0 8.8-7.2 16-16 16z",
            "M564.8 879.2h-105.6c-8.8 0-16-7.2-16-16v-456c0-8.8 7.2-16 16-16h106.4c8.8 0 16 7.2 16 16v456.8c-0.8 8-7.2 15.2-16.8 15.2zM475.2 847.2h74.4v-424h-74.4v424z",
            "M979.2 791.2h-280.8c-8.8 0-16-7.2-16-16s7.2-16 16-16h280.8c8.8 0 16 7.2 16 16s-7.2 16-16 16z",
            "M325.6 791.2h-280.8c-8.8 0-16-7.2-16-16s7.2-16 16-16h280.8c8.8 0 16 7.2 16 16s-7.2 16-16 16z",
            "M656 422.4c-8.8 0-16-7.2-16-16v-32.8c0-8.8 7.2-16 16-16s16 7.2 16 16v32.8c0 8.8-7.2 16-16 16z",
            "M368 422.4c-8.8 0-16-7.2-16-16v-32.8c0-8.8 7.2-16 16-16s16 7.2 16 16v32.8c0 8.8-7.2 16-16 16z"
          ],
          "attrs": [
            {},
            {},
            {},
            {},
            {},
            {},
            {},
            {},
            {},
            {},
            {},
            {},
            {},
            {},
            {}
          ],
          "isMulticolor": false,
          "isMulticolor2": false,
          "grid": 0,
          "tags": [
            "122"
          ]
        },
        {
          "id": 15,
          "paths": [
            "M952 635.2c0 0 0 0 0 0h-880c-37.6 0-68-30.4-68-68v-248.8c0-37.6 30.4-68 68-68h879.2c37.6 0 68 30.4 68 68v248.8c0 18.4-7.2 35.2-20 48-12 12.8-29.6 20-47.2 20zM72.8 281.6c-20 0-36 16-36 36v248.8c0 20 16 36 36 36h879.2c9.6 0 19.2-4 25.6-10.4 7.2-7.2 10.4-16 10.4-25.6v-248.8c0-20-16-36-36-36v0h-879.2z",
            "M465.6 565.6v0h-38.4c-4.8 0-8-3.2-8-8s3.2-8 8-8v0h38.4c4.8 0 8 3.2 8 8s-3.2 8-8 8z",
            "M596 565.6h-24c-4.8 0-8-3.2-8-8s3.2-8 8-8h24c4.8 0 8 3.2 8 8s-3.2 8-8 8z",
            "M49.6 774.4c-1.6 0-4 0-5.6-0.8-8-3.2-12-12.8-8.8-20.8l32-80.8c3.2-8 12.8-12 20.8-8.8s12 12.8 8.8 20.8l-32 80.8c-3.2 5.6-8.8 9.6-15.2 9.6z",
            "M133.6 774.4c-1.6 0-3.2 0-4.8-0.8-8.8-2.4-12.8-12-10.4-20l25.6-80c2.4-8.8 12-12.8 20-10.4 8.8 2.4 12.8 12 10.4 20l-25.6 80.8c-2.4 6.4-8.8 10.4-15.2 10.4z",
            "M217.6 774.4c-1.6 0-2.4 0-4-0.8-8.8-2.4-13.6-11.2-12-19.2l20-80.8c2.4-8.8 11.2-13.6 19.2-12 8.8 2.4 13.6 11.2 12 19.2l-20 80.8c-1.6 8-8 12.8-15.2 12.8z",
            "M301.6 774.4c-0.8 0-1.6 0-3.2 0-8.8-1.6-14.4-9.6-12.8-18.4l14.4-80.8c1.6-8.8 9.6-14.4 18.4-12.8s14.4 9.6 12.8 18.4l-14.4 80.8c-0.8 7.2-7.2 12.8-15.2 12.8z",
            "M385.6 774.4c-0.8 0-0.8 0-1.6 0-8.8-0.8-15.2-8.8-14.4-17.6l8.8-80.8c0.8-8.8 8.8-15.2 17.6-14.4s15.2 8.8 14.4 17.6l-8.8 80.8c-0.8 8.8-8 14.4-16 14.4z",
            "M469.6 774.4c0 0 0 0 0 0-9.6 0-16-8-16-16.8l3.2-80.8c0-8.8 7.2-16 16.8-15.2 8.8 0 16 8 15.2 16.8l-3.2 80.8c0 8.8-7.2 15.2-16 15.2z",
            "M554.4 774.4c-8.8 0-16-6.4-16-15.2l-3.2-80.8c0-8.8 6.4-16 15.2-16.8 8.8 0 16 6.4 16.8 15.2l3.2 80.8c0 9.6-7.2 16.8-16 16.8 0 0 0 0 0 0z",
            "M638.4 774.4c-8 0-15.2-6.4-16-14.4l-8.8-80c-0.8-8.8 5.6-16.8 14.4-17.6s16.8 5.6 17.6 14.4l8.8 80.8c0.8 8.8-5.6 16.8-14.4 17.6-0.8-0.8-1.6-0.8-1.6-0.8z",
            "M722.4 774.4c-8 0-14.4-5.6-16-12.8l-14.4-80.8c-1.6-8.8 4-16.8 12.8-18.4s16.8 4 18.4 12.8l14.4 80.8c1.6 8.8-4 16.8-12.8 18.4-0.8 0-1.6 0-2.4 0z",
            "M806.4 774.4c-7.2 0-13.6-4.8-15.2-12l-20-80.8c-2.4-8.8 3.2-17.6 12-19.2 8.8-2.4 17.6 3.2 19.2 12l20 80.8c2.4 8.8-3.2 17.6-12 19.2-1.6 0-3.2 0-4 0z",
            "M890.4 774.4c-6.4 0-12.8-4-15.2-11.2l-25.6-80.8c-2.4-8.8 1.6-17.6 10.4-20s17.6 1.6 20 10.4l25.6 80.8c2.4 8.8-1.6 17.6-10.4 20-1.6 0.8-3.2 0.8-4.8 0.8z",
            "M974.4 774.4c-6.4 0-12.8-4-15.2-10.4l-32-80.8c-3.2-8 0.8-17.6 8.8-20.8s17.6 0.8 20.8 8.8l32 80.8c3.2 8-0.8 17.6-8.8 20.8-1.6 1.6-3.2 1.6-5.6 1.6z",
            "M1004 373.6v0h-984c-4.8 0-8-3.2-8-8v-48c0-33.6 27.2-60 60-60h879.2c33.6 0 60 27.2 60 60v48c0 2.4-0.8 4-2.4 5.6s-2.4 2.4-4.8 2.4zM28 357.6h968v-40c0-24.8-20-44-44-44h-879.2c-24.8 0-44 20-44 44v40z"
          ],
          "attrs": [
            {},
            {},
            {},
            {},
            {},
            {},
            {},
            {},
            {},
            {},
            {},
            {},
            {},
            {},
            {},
            {}
          ],
          "isMulticolor": false,
          "isMulticolor2": false,
          "grid": 0,
          "tags": [
            "105"
          ]
        },
        {
          "id": 14,
          "paths": [
            "M638.4 865.6h-472c-4 0-8-3.2-8-8v-472c0-3.2 1.6-6.4 4.8-7.2 3.2-1.6 6.4-0.8 8.8 1.6l472 472c2.4 2.4 3.2 5.6 1.6 8.8-0.8 3.2-4 4.8-7.2 4.8zM174.4 849.6h444.8l-444.8-444.8v444.8z",
            "M1004 1020h-984c-8.8 0-16-7.2-16-16v-984c0-6.4 4-12 9.6-14.4s12.8-0.8 17.6 3.2l984 984c4.8 4.8 5.6 11.2 3.2 17.6-2.4 5.6-8 9.6-14.4 9.6zM36 988h929.6l-929.6-929.6v929.6z",
            "M50.4 174.4h-30.4c-4 0-8-3.2-8-8s3.2-8 8-8h30.4c4 0 8 3.2 8 8s-4 8-8 8z",
            "M74.4 347.2h-54.4c-4 0-8-3.2-8-8 0-4 3.2-8 8-8h54.4c4 0 8 3.2 8 8 0 4-4 8-8 8z",
            "M63.2 520h-43.2c-4 0-8-3.2-8-8 0-4 3.2-8 8-8h43.2c4 0 8 3.2 8 8 0 4-4 8-8 8z",
            "M63.2 692.8h-43.2c-4 0-8-3.2-8-8 0-4 3.2-8 8-8h43.2c4 0 8 3.2 8 8s-4 8-8 8z",
            "M90.4 865.6h-70.4c-4 0-8-3.2-8-8 0-4 3.2-8 8-8h70.4c4 0 8 3.2 8 8s-4 8-8 8z",
            "M857.6 1012c-4 0-8-3.2-8-8v-31.2c0-4 3.2-8 8-8 4 0 8 3.2 8 8v31.2c0 4.8-3.2 8-8 8z",
            "M684.8 1012c-4 0-8-3.2-8-8v-57.6c0-4 3.2-8 8-8 4 0 8 3.2 8 8v57.6c0 4.8-3.2 8-8 8z",
            "M512 1012c-4 0-8-3.2-8-8v-43.2c0-4 3.2-8 8-8 4 0 8 3.2 8 8v43.2c0 4.8-4 8-8 8z",
            "M339.2 1012c-4 0-8-3.2-8-8v-63.2c0-4 3.2-8 8-8 4 0 8 3.2 8 8v63.2c0 4.8-4 8-8 8z",
            "M166.4 1012c-4 0-8-3.2-8-8v-43.2c0-4 3.2-8 8-8 4 0 8 3.2 8 8v43.2c0 4.8-4 8-8 8z"
          ],
          "attrs": [
            {},
            {},
            {},
            {},
            {},
            {},
            {},
            {},
            {},
            {},
            {},
            {}
          ],
          "isMulticolor": false,
          "isMulticolor2": false,
          "grid": 0,
          "tags": [
            "Untitled-3-59"
          ]
        },
        {
          "id": 13,
          "paths": [
            "M900.8 1020h-777.6c-8.8 0-16-7.2-16-16v-515.2c0-8.8 7.2-16 16-16h777.6c8.8 0 16 7.2 16 16v515.2c-0 8.8-7.2 16-16 16zM139.2 988h745.6v-483.2h-745.6v483.2z",
            "M786.4 504.8h-548.8c-8.8 0-16-7.2-16-16v-194.4c0-160 130.4-290.4 290.4-290.4s290.4 130.4 290.4 290.4v194.4c0 8.8-7.2 16-16 16zM253.6 472.8h516.8v-178.4c0-142.4-116-258.4-258.4-258.4s-258.4 116-258.4 258.4v178.4z",
            "M562.4 896h-100.8c-8 0-16-3.2-20.8-9.6-5.6-6.4-8-14.4-6.4-22.4l20-137.6c-12.8-14.4-20-32.8-20-52 0-43.2 35.2-78.4 78.4-78.4s78.4 35.2 78.4 78.4c0 19.2-7.2 37.6-20 52l20 137.6c0.8 8-1.6 16-6.4 22.4-7.2 6.4-14.4 9.6-22.4 9.6zM512 612.8c-34.4 0-62.4 28-62.4 62.4 0 16.8 6.4 32 18.4 44 1.6 1.6 2.4 4 2.4 6.4l-20 141.6c-0.8 3.2 0.8 6.4 2.4 9.6 2.4 2.4 5.6 4 8.8 4h100.8c3.2 0 6.4-1.6 8.8-4s3.2-5.6 2.4-9.6l-20-141.6c0-2.4 0.8-4.8 2.4-6.4 12-12 18.4-27.2 18.4-44 0-34.4-28-62.4-62.4-62.4z"
          ],
          "attrs": [
            {},
            {},
            {}
          ],
          "isMulticolor": false,
          "isMulticolor2": false,
          "grid": 0,
          "tags": [
            "4"
          ]
        },
        {
          "id": 12,
          "paths": [
            "M428.8 952h-340c-8.8 0-16-7.2-16-16v-160.8c0-8.8 7.2-16 16-16h310.4c25.6 0 45.6 20.8 45.6 45.6v131.2c0 8.8-7.2 16-16 16zM104.8 920h308.8v-115.2c0-8-6.4-13.6-13.6-13.6h-295.2v128.8z",
            "M88.8 791.2c-0.8 0-2.4 0-3.2 0h-0.8c-7.2-2.4-11.2-7.2-12.8-13.6v-1.6c-8.8-36.8-16.8-80-22.4-109.6-20.8-108-37.6-144.8-43.2-156-3.2-4.8-2.4-11.2 0-16 3.2-4.8 8-8 13.6-8 76.8 0 141.6 40.8 155.2 96.8 4 16.8 8 36 12 56l4.8 24.8c8.8 44.8 15.2 77.6 18.4 109.6 0.8 4.8-0.8 8.8-4 12s-7.2 5.6-12 5.6h-104c-0.8 0-1.6 0-1.6 0zM100.8 759.2h75.2c-3.2-25.6-8.8-53.6-16-88.8l-4.8-24.8c-4-20-8-38.4-11.2-54.4-8-35.2-48.8-63.2-98.4-70.4 9.6 24.8 21.6 68 35.2 140 4.8 26.4 12 64 20 98.4z",
            "M935.2 952h-340c-8.8 0-16-7.2-16-16v-131.2c0-25.6 20.8-45.6 45.6-45.6h310.4c8.8 0 16 7.2 16 16v160.8c0 8.8-7.2 16-16 16zM611.2 920h308.8v-128.8h-295.2c-8 0-13.6 6.4-13.6 13.6v115.2z",
            "M935.2 791.2c-0.8 0-1.6 0-2.4 0h-103.2c-4.8 0-8.8-1.6-12-5.6-3.2-3.2-4.8-8-4-12 3.2-32 9.6-64.8 18.4-109.6l4.8-24.8c4-20 8-39.2 12-56 12.8-56 78.4-96.8 155.2-96.8 5.6 0 11.2 3.2 13.6 8 3.2 4.8 3.2 11.2 0 16-6.4 11.2-22.4 48-43.2 156-5.6 29.6-14.4 72.8-22.4 109.6v1.6c-1.6 6.4-5.6 11.2-12 12.8h-0.8c-1.6 0.8-2.4 0.8-4 0.8zM848 759.2h75.2c7.2-33.6 15.2-72 20-98.4 13.6-72.8 26.4-115.2 35.2-140-49.6 7.2-90.4 35.2-98.4 70.4-4 16.8-8 35.2-11.2 54.4l-4.8 24.8c-7.2 35.2-12.8 63.2-16 88.8z",
            "M512 972.8c-8.8 0-16-7.2-16-16v-728c0-8.8 7.2-16 16-16s16 7.2 16 16v728c0 8.8-7.2 16-16 16z",
            "M757.6 612.8h-491.2c-8.8 0-16-7.2-16-16s7.2-16 16-16h491.2c8.8 0 16 7.2 16 16s-7.2 16-16 16z",
            "M243.2 244c-7.2 0-13.6-4.8-15.2-12s0.8-14.4 7.2-17.6l268.8-160.8c4.8-3.2 11.2-3.2 16.8 0l268.8 160.8c6.4 4 8.8 11.2 7.2 17.6-1.6 7.2-8 12-15.2 12h-538.4zM512 86.4l-210.4 125.6h421.6l-211.2-125.6z"
          ],
          "attrs": [
            {},
            {},
            {},
            {},
            {},
            {},
            {}
          ],
          "isMulticolor": false,
          "isMulticolor2": false,
          "grid": 0,
          "tags": [
            "43"
          ]
        },
        {
          "id": 11,
          "paths": [
            "M354.4 799.2c-4 0-8-1.6-11.2-4.8l-113.6-113.6c-3.2-3.2-4.8-7.2-4.8-11.2s1.6-8 4.8-11.2l428.8-428.8c6.4-6.4 16-6.4 22.4 0l113.6 113.6c3.2 3.2 4.8 7.2 4.8 11.2s-1.6 8-4.8 11.2l-428.8 428.8c-3.2 3.2-7.2 4.8-11.2 4.8zM263.2 669.6l91.2 90.4 406.4-406.4-91.2-90.4-406.4 406.4z",
            "M914.4 501.6c-4 0-8-1.6-11.2-4.8l-376-376c-3.2-3.2-4.8-7.2-4.8-11.2s1.6-8 4.8-11.2l64.8-64.8c6.4-6.4 16-6.4 22.4 0l375.2 375.2c6.4 6.4 6.4 16 0 22.4l-64.8 64.8c-2.4 3.2-6.4 5.6-10.4 5.6zM561.6 109.6l352.8 352.8 42.4-42.4-352.8-352.8-42.4 42.4z",
            "M926.4 383.2c-4 0-8-1.6-11.2-4.8l-270.4-269.6c-3.2-3.2-4.8-7.2-4.8-11.2s1.6-8 4.8-11.2l64.8-64.8c6.4-6.4 16-6.4 22.4 0l269.6 269.6c3.2 3.2 4.8 7.2 4.8 11.2s-1.6 8-4.8 11.2l-64.8 64.8c-2.4 3.2-6.4 4.8-10.4 4.8zM679.2 97.6l247.2 247.2 42.4-42.4-247.2-247.2-42.4 42.4z",
            "M939.2 266.4c-4 0-8-1.6-11.2-4.8l-165.6-165.6c-6.4-6.4-6.4-16 0-22.4l64.8-64.8c5.6-6.4 16.8-6.4 22.4 0l165.6 165.6c3.2 3.2 4.8 7.2 4.8 11.2s-1.6 8-4.8 11.2l-64.8 64.8c-3.2 3.2-7.2 4.8-11.2 4.8zM796 84.8l143.2 143.2 42.4-42.4-143.2-143.2-42.4 42.4z",
            "M420 995.2c-4 0-8-1.6-11.2-4.8l-375.2-375.2c-6.4-6.4-6.4-16 0-22.4l64.8-64.8c5.6-6.4 16.8-6.4 22.4 0l375.2 375.2c3.2 3.2 4.8 7.2 4.8 11.2s-1.6 8-4.8 11.2l-64.8 64.8c-2.4 3.2-6.4 4.8-11.2 4.8zM67.2 603.2l352.8 352.8 42.4-42.4-352.8-352-42.4 41.6z",
            "M302.4 1007.2c-4 0-8-1.6-11.2-4.8l-269.6-269.6c-3.2-3.2-4.8-7.2-4.8-11.2s1.6-8 4.8-11.2l64.8-64.8c6.4-6.4 16-6.4 22.4 0l269.6 269.6c3.2 3.2 4.8 7.2 4.8 11.2s-1.6 8-4.8 11.2l-64.8 64.8c-3.2 3.2-7.2 4.8-11.2 4.8zM55.2 721.6l247.2 247.2 42.4-42.4-247.2-247.2-42.4 42.4z",
            "M185.6 1020c-4 0-8-1.6-11.2-4.8l-165.6-165.6c-3.2-3.2-4.8-7.2-4.8-11.2s1.6-8 4.8-11.2l64.8-64.8c6.4-6.4 16-6.4 22.4 0l165.6 165.6c3.2 3.2 4.8 7.2 4.8 11.2s-1.6 8-4.8 11.2l-64.8 64.8c-3.2 3.2-7.2 4.8-11.2 4.8zM42.4 838.4l143.2 143.2 42.4-42.4-143.2-143.2-42.4 42.4z"
          ],
          "attrs": [
            {},
            {},
            {},
            {},
            {},
            {},
            {}
          ],
          "isMulticolor": false,
          "isMulticolor2": false,
          "grid": 0,
          "tags": [
            "3"
          ]
        },
        {
          "id": 10,
          "paths": [
            "M727.2 791.2c-4 0-8-1.6-11.2-4.8-78.4-78.4-168-124-283.2-143.2-8.8-1.6-14.4-9.6-12.8-18.4s9.6-14.4 18.4-12.8c116 20 208.8 64.8 288.8 141.6l25.6-25.6c-76-80.8-121.6-172.8-141.6-288.8-1.6-8.8 4-16.8 12.8-18.4s16.8 4 18.4 12.8c20 115.2 65.6 204.8 143.2 283.2 6.4 6.4 6.4 16 0 22.4l-48 48c-2.4 2.4-6.4 4-10.4 4z",
            "M421.6 643.2c-16.8 0-33.6-1.6-51.2-4-83.2-14.4-167.2-59.2-235.2-127.2-142.4-142.4-173.6-342.4-69.6-446.4s304-72.8 446.4 69.6v0c142.4 142.4 173.6 342.4 69.6 446.4-40.8 40-96 61.6-160 61.6zM225.6 36c-53.6 0-102.4 16.8-137.6 52-91.2 91.2-60 271.2 69.6 400.8 63.2 63.2 140.8 105.6 217.6 118.4 74.4 12 140-4.8 183.2-48 91.2-91.2 60-271.2-69.6-400.8-79.2-80-177.6-122.4-263.2-122.4z",
            "M941.6 1020c-14.4 0-28-5.6-38.4-16l-202.4-202.4c-6.4-6.4-6.4-16 0-22.4l78.4-78.4c6.4-6.4 16.8-6.4 22.4 0l202.4 202.4c21.6 21.6 21.6 56 0 76.8 0 0 0 0 0 0l-24 24c-10.4 10.4-24 16-38.4 16zM734.4 790.4l191.2 191.2c8.8 8.8 23.2 8.8 32 0l24-24c8.8-8.8 8.8-23.2 0-32l-191.2-191.2-56 56z",
            "M525.6 610.4c-0.8 0-0.8 0-1.6 0-4-0.8-7.2-4.8-6.4-9.6l67.2-324.8c0.8-4 4.8-7.2 9.6-6.4 4 0.8 7.2 4.8 6.4 9.6l-67.2 324.8c-0.8 4-4 6.4-8 6.4z",
            "M434.4 634.4c-0.8 0-0.8 0-1.6 0-4-0.8-7.2-4.8-6.4-9.6l92.8-451.2c0.8-4 4.8-7.2 9.6-6.4 4 0.8 7.2 4.8 6.4 9.6l-92.8 451.2c-0.8 4-4.8 6.4-8 6.4z",
            "M349.6 626.4c-0.8 0-0.8 0-1.6 0-4-0.8-7.2-4.8-6.4-9.6l105.6-512c0.8-4 4.8-7.2 9.6-6.4 4 0.8 7.2 4.8 6.4 9.6l-105.6 512c-1.6 3.2-4.8 6.4-8 6.4z",
            "M268.8 596.8c-0.8 0-0.8 0-1.6 0-4-0.8-7.2-4.8-6.4-9.6l109.6-530.4c0.8-4 4.8-7.2 9.6-6.4 4 0.8 7.2 4.8 6.4 9.6l-109.6 530.4c-0.8 4-4 6.4-8 6.4z",
            "M192 548.8c-0.8 0-0.8 0-1.6 0-4-0.8-7.2-4.8-6.4-9.6l105.6-512c0.8-4 4.8-7.2 9.6-6.4 4 0.8 7.2 4.8 6.4 9.6l-105.6 512c-0.8 3.2-4 6.4-8 6.4z",
            "M120 479.2c-0.8 0-0.8 0-1.6 0-4-0.8-7.2-4.8-6.4-9.6l92.8-451.2c0.8-4 4.8-7.2 9.6-6.4 4 0.8 7.2 4.8 6.4 9.6l-93.6 451.2c-0.8 4-4 6.4-7.2 6.4z",
            "M53.6 377.6c-0.8 0-0.8 0-1.6 0-4-1.6-6.4-5.6-5.6-9.6l67.2-324.8c0.8-4 4.8-7.2 9.6-6.4 4 0.8 7.2 4.8 6.4 9.6l-68 324.8c-0.8 3.2-4 6.4-8 6.4z",
            "M277.6 600.8c-4 0-7.2-2.4-8-6.4s1.6-8.8 6.4-9.6l324.8-67.2c4-0.8 8.8 1.6 9.6 6.4 0.8 4-1.6 8.8-6.4 9.6l-324.8 67.2c-0.8 0-0.8 0-1.6 0z",
            "M176 535.2c-4 0-7.2-2.4-8-6.4s1.6-8.8 6.4-9.6l451.2-92.8c4-0.8 8.8 1.6 9.6 6.4 0.8 4-1.6 8.8-6.4 9.6l-451.2 92.8c-0.8 0-1.6 0-1.6 0z",
            "M106.4 463.2c-4 0-7.2-2.4-8-6.4s1.6-8.8 6.4-9.6l512-105.6c4-0.8 8.8 1.6 9.6 6.4 0.8 4-1.6 8.8-6.4 9.6l-512 105.6c-0.8-0-0.8-0-1.6-0z",
            "M58.4 386.4c-4 0-7.2-2.4-8-6.4s1.6-8.8 6.4-9.6l530.4-109.6c4-0.8 8.8 1.6 9.6 6.4 0.8 4-1.6 8.8-6.4 9.6l-530.4 109.6c-0.8 0-1.6 0-1.6 0z",
            "M28.8 305.6c-4 0-7.2-2.4-8-6.4s1.6-8.8 6.4-9.6l512-105.6c4-0.8 8.8 1.6 9.6 6.4 0.8 4-1.6 8.8-6.4 9.6l-512 105.6c-0.8 0-0.8 0-1.6 0z",
            "M20 220.8c-4 0-7.2-2.4-8-6.4s1.6-8.8 6.4-9.6l451.2-92.8c4-0.8 8.8 1.6 9.6 6.4 0.8 4-1.6 8.8-6.4 9.6l-451.2 92.8c0 0-0.8 0-1.6 0z",
            "M44 128.8c-4 0-7.2-2.4-8-6.4s1.6-8.8 6.4-9.6l325.6-66.4c4-0.8 8 1.6 8.8 5.6s-1.6 8.8-6.4 9.6l-324.8 67.2c0 0-0.8 0-1.6 0z",
            "M790.4 447.2c-28 0-56-10.4-77.6-32-42.4-42.4-42.4-112 0-155.2 42.4-42.4 112-42.4 155.2 0v0c42.4 42.4 42.4 112 0 155.2-21.6 21.6-49.6 32-77.6 32zM790.4 260.8c-20 0-40 7.2-55.2 22.4-30.4 30.4-30.4 79.2 0 109.6s79.2 30.4 109.6 0c30.4-30.4 30.4-79.2 0-109.6-14.4-15.2-34.4-22.4-54.4-22.4z",
            "M765.6 838.4c-2.4 0-4-0.8-5.6-2.4-3.2-3.2-3.2-8 0-11.2l63.2-63.2c3.2-3.2 8-3.2 11.2 0s3.2 8 0 11.2l-63.2 63.2c-1.6 1.6-4 2.4-5.6 2.4z",
            "M816 888c-2.4 0-4-0.8-5.6-2.4-3.2-3.2-3.2-8 0-11.2l63.2-63.2c3.2-3.2 8-3.2 11.2 0s3.2 8 0 11.2l-63.2 63.2c-1.6 1.6-4 2.4-5.6 2.4z"
          ],
          "attrs": [
            {},
            {},
            {},
            {},
            {},
            {},
            {},
            {},
            {},
            {},
            {},
            {},
            {},
            {},
            {},
            {},
            {},
            {},
            {},
            {}
          ],
          "isMulticolor": false,
          "isMulticolor2": false,
          "grid": 0,
          "tags": [
            "56"
          ]
        },
        {
          "id": 9,
          "paths": [
            "M1004 883.2h-984c-8.8 0-16-7.2-16-16v-488c0-8.8 7.2-16 16-16h984c8.8 0 16 7.2 16 16v488c0 8.8-7.2 16-16 16zM36 851.2h952v-456h-952v456z",
            "M748.8 546.4h-255.2c-4.8 0-8-3.2-8-8v-159.2c0-4.8 3.2-8 8-8h255.2c4.8 0 8 3.2 8 8v159.2c0 4.8-4 8-8 8zM501.6 530.4h239.2v-143.2h-239.2v143.2z",
            "M1004 546.4h-255.2c-4.8 0-8-3.2-8-8v-159.2c0-4.8 3.2-8 8-8h255.2c4.8 0 8 3.2 8 8v159.2c0 4.8-3.2 8-8 8zM756.8 530.4h239.2v-143.2h-239.2v143.2z",
            "M493.6 875.2h-473.6c-4.8 0-8-3.2-8-8v-488c0-4.8 3.2-8 8-8h473.6c4.8 0 8 3.2 8 8v488c0 4.8-4 8-8 8zM28 859.2h457.6v-472h-457.6v472z",
            "M748.8 875.2h-255.2c-4.8 0-8-3.2-8-8v-328.8c0-4.8 3.2-8 8-8h255.2c4.8 0 8 3.2 8 8v328.8c0 4.8-4 8-8 8zM501.6 859.2h239.2v-312.8h-239.2v312.8z",
            "M1004 875.2h-255.2c-4.8 0-8-3.2-8-8v-328.8c0-4.8 3.2-8 8-8h255.2c4.8 0 8 3.2 8 8v328.8c0 4.8-3.2 8-8 8zM756.8 859.2h239.2v-312.8h-239.2v312.8z",
            "M678.4 755.2c-4.8 0-8-3.2-8-8v-88.8c0-4.8 3.2-8 8-8s8 3.2 8 8v88.8c0 4.8-3.2 8-8 8z",
            "M819.2 755.2c-4.8 0-8-3.2-8-8v-88.8c0-4.8 3.2-8 8-8s8 3.2 8 8v88.8c0 4.8-4 8-8 8z",
            "M906.4 467.2h-60c-4.8 0-8-3.2-8-8s3.2-8 8-8h60c4.8 0 8 3.2 8 8s-3.2 8-8 8z",
            "M651.2 467.2h-60c-4.8 0-8-3.2-8-8s3.2-8 8-8h60c4.8 0 8 3.2 8 8s-3.2 8-8 8z",
            "M116.8 395.2c-8.8 0-16-7.2-16-16v-156c0-45.6 37.6-82.4 83.2-82.4 34.4 0 64.8 20 77.6 52l17.6 44c3.2 8-0.8 17.6-8.8 20.8s-17.6-0.8-20.8-8.8l-17.6-44c-8-19.2-26.4-32-48-32-28 0-51.2 22.4-51.2 50.4v156c0 8.8-7.2 16-16 16z",
            "M168 322.4h-103.2c-8.8 0-16-7.2-16-16s7.2-16 16-16h103.2c8.8 0 16 7.2 16 16s-7.2 16-16 16z"
          ],
          "attrs": [
            {},
            {},
            {},
            {},
            {},
            {},
            {},
            {},
            {},
            {},
            {},
            {}
          ],
          "isMulticolor": false,
          "isMulticolor2": false,
          "grid": 0,
          "tags": [
            "79"
          ]
        },
        {
          "id": 8,
          "paths": [
            "M940.8 741.6c-8.8 0-16-7.2-16-16v-60.8c0-8.8 7.2-16 16-16s16 7.2 16 16v60.8c0 8.8-7.2 16-16 16z",
            "M83.2 741.6c-8.8 0-16-7.2-16-16v-60.8c0-8.8 7.2-16 16-16s16 7.2 16 16v60.8c0 8.8-7.2 16-16 16z",
            "M1004 680.8h-984c-8.8 0-16-7.2-16-16v-188.8c0-33.6 27.2-61.6 61.6-61.6h3.2c10.4 0 20.8 2.4 29.6 8v-23.2c0-64.8 52.8-116.8 116.8-116.8h63.2c34.4 0 65.6 15.2 87.2 39.2 6.4-22.4 28-39.2 53.6-39.2h186.4c25.6 0 46.4 16.8 53.6 39.2 21.6-24 52.8-39.2 87.2-39.2h63.2c64.8 0 116.8 52.8 116.8 116.8v23.2c8.8-4.8 19.2-8 29.6-8h3.2c33.6 0 61.6 27.2 61.6 61.6v188.8c-0.8 8.8-8 16-16.8 16zM36 648.8h952v-172.8c0-16-12.8-29.6-29.6-29.6h-3.2c-16 0-29.6 12.8-29.6 29.6 0 8.8-7.2 16-16 16 0 0 0 0 0 0-8.8 0-16-7.2-16-16v-76.8c0-47.2-38.4-84.8-84.8-84.8h-63.2c-47.2 0-84.8 38.4-84.8 84.8 0 8.8-7.2 16-16 16s-16-7.2-16-16v-63.2c0-12-10.4-21.6-23.2-21.6h-187.2c-12.8 0-23.2 9.6-23.2 21.6v63.2c0 8.8-7.2 16-16 16s-16-7.2-16-16c0-47.2-38.4-84.8-84.8-84.8h-63.2c-47.2 0-84.8 38.4-84.8 84.8v76.8c0 8.8-7.2 16-16 16 0 0 0 0 0 0-8.8 0-16-7.2-16-16 0-16-12.8-29.6-29.6-29.6h-3.2c-16 0-29.6 12.8-29.6 29.6v172.8z",
            "M910.4 672.8h-796.8c-4.8 0-8-3.2-8-8v-57.6c0-4.8 3.2-8 8-8h796.8c4.8 0 8 3.2 8 8v57.6c0 4.8-3.2 8-8 8zM121.6 656.8h780.8v-41.6h-780.8v41.6z",
            "M113.6 672.8h-93.6c-4.8 0-8-3.2-8-8v-188.8c0-29.6 24-53.6 53.6-53.6h3.2c29.6 0 53.6 24 53.6 53.6v188.8c-0.8 4.8-4.8 8-8.8 8zM28 656.8h77.6v-180.8c0-20.8-16.8-37.6-37.6-37.6h-2.4c-20.8 0-37.6 16.8-37.6 37.6v180.8z",
            "M1004 672.8h-93.6c-4.8 0-8-3.2-8-8v-188.8c0-29.6 24-53.6 53.6-53.6h3.2c29.6 0 53.6 24 53.6 53.6v188.8c-0.8 4.8-4 8-8.8 8zM918.4 656.8h77.6v-180.8c0-20.8-16.8-37.6-37.6-37.6h-3.2c-20.8 0-37.6 16.8-37.6 37.6v180.8z",
            "M379.2 524h-265.6c-4.8 0-8-3.2-8-8v-116.8c0-60 48.8-108.8 108.8-108.8h63.2c60 0 108.8 48.8 108.8 108.8v116.8c0.8 4.8-2.4 8-7.2 8zM121.6 508h249.6v-108.8c0-51.2-41.6-92.8-92.8-92.8h-63.2c-51.2 0-92.8 41.6-92.8 92.8v108.8z",
            "M910.4 524h-265.6c-4.8 0-8-3.2-8-8v-116.8c0-60 48.8-108.8 108.8-108.8h63.2c60 0 108.8 48.8 108.8 108.8v116.8c0.8 4.8-3.2 8-7.2 8zM652.8 508h249.6v-108.8c0-51.2-41.6-92.8-92.8-92.8h-63.2c-51.2 0-92.8 41.6-92.8 92.8v108.8z",
            "M506.4 577.6c-4.8 0-8-3.2-8-8 0-24.8-21.6-45.6-48-45.6h-71.2c-4.8 0-8-3.2-8-8v-180c0-24.8 21.6-45.6 47.2-45.6h186.4c26.4 0 47.2 20 47.2 45.6v180.8c0 4.8-3.2 8-8 8h-81.6c-26.4 0-48 20-48 45.6 0 3.2-3.2 7.2-8 7.2zM387.2 508h63.2c24 0 44.8 12.8 56 32 11.2-19.2 32-32 56-32h74.4v-172c0-16-14.4-29.6-31.2-29.6h-187.2c-17.6 0-31.2 13.6-31.2 29.6v172z",
            "M910.4 615.2h-796.8c-4.8 0-8-3.2-8-8v-91.2c0-4.8 3.2-8 8-8h336.8c24 0 44.8 12.8 56 32 11.2-19.2 32-32 56-32h348c4.8 0 8 3.2 8 8v91.2c0 4-3.2 8-8 8zM121.6 599.2h780.8v-75.2h-340c-26.4 0-48 20-48 45.6 0 4.8-3.2 8-8 8s-8-3.2-8-8c0-24.8-21.6-45.6-48-45.6h-328.8v75.2z"
          ],
          "attrs": [
            {},
            {},
            {},
            {},
            {},
            {},
            {},
            {},
            {},
            {}
          ],
          "isMulticolor": false,
          "isMulticolor2": false,
          "grid": 0,
          "tags": [
            "90"
          ]
        },
        {
          "id": 7,
          "paths": [
            "M904 1020h-784c-37.6 0-68-30.4-68-68s30.4-68 68-68h784c37.6 0 68 30.4 68 68s-31.2 68-68 68zM120 916c-20 0-36 16-36 36s16 36 36 36h784c20 0 36-16 36-36s-16-36-36-36h-784z",
            "M881.6 916h-739.2c-8.8 0-16-7.2-16-16v-304c0-20.8 6.4-41.6 17.6-59.2 20-31.2 54.4-50.4 92-50.4h552.8c36 0 69.6 17.6 90.4 48 12 18.4 19.2 39.2 19.2 61.6v304c-0.8 9.6-8 16-16.8 16zM158.4 884h708v-288c0-15.2-4.8-30.4-13.6-43.2-14.4-21.6-38.4-33.6-64-33.6h-553.6c-26.4 0-50.4 13.6-64.8 35.2-8 12.8-12 27.2-12 41.6v288z",
            "M514.4 731.2c-20 0-38.4-6.4-54.4-19.2-12.8-10.4-22.4-24-32-36.8-10.4-14.4-20.8-27.2-32.8-36-9.6-6.4-20-10.4-31.2-10.4-13.6 0-26.4 5.6-36 15.2-6.4 7.2-12 16-18.4 24.8-5.6 9.6-12 19.2-20 27.2-12 12.8-28 20-43.2 20.8s-29.6-4.8-39.2-16.8c-8-9.6-12.8-23.2-16.8-34.4-7.2-20-17.6-50.4-28-80.8l-12.8-37.6c-0.8-2.4-0.8-4.8 0.8-7.2 18.4-28.8 50.4-46.4 84.8-46.4h552.8c33.6 0 64.8 16.8 84 44 1.6 2.4 1.6 4.8 0.8 7.2-4 14.4-8.8 29.6-10.4 34.4-8 31.2-16.8 60.8-38.4 76-8 5.6-17.6 8.8-28 8.8-16 1.6-36-8-52-24-2.4-2.4-4-4-6.4-6.4-5.6-5.6-10.4-11.2-16-14.4-11.2-7.2-24-6.4-36-6.4-18.4 0.8-36 1.6-48.8 15.2-5.6 5.6-10.4 13.6-14.4 22.4-1.6 2.4-2.4 4.8-4 7.2-18.4 32-43.2 56-70.4 67.2-10.4 4-22.4 6.4-33.6 6.4zM364 612.8c14.4 0 28 4.8 40 13.6 14.4 10.4 25.6 24.8 36 39.2 9.6 12.8 18.4 24.8 29.6 33.6 20 16.8 48 20 72 10.4 23.2-9.6 45.6-31.2 62.4-60 1.6-2.4 2.4-4.8 4-6.4 4.8-8.8 10.4-18.4 16.8-25.6 16.8-17.6 38.4-19.2 60-20 2.4 0 4.8 0 8 0 12 0 24.8 0.8 37.6 8.8 7.2 4.8 12.8 10.4 19.2 16.8 1.6 1.6 4 4 5.6 5.6 20 20 44 26.4 60 15.2 16.8-12 24.8-39.2 32-66.4 1.6-4.8 4.8-17.6 9.6-31.2-16-21.6-41.6-34.4-68-34.4h-553.6c-28 0-53.6 13.6-69.6 36l12 33.6c10.4 30.4 21.6 60.8 28 80.8 3.2 10.4 8 22.4 14.4 29.6s16 11.2 26.4 11.2c12-0.8 23.2-6.4 32.8-16 6.4-7.2 12-15.2 17.6-24.8 6.4-9.6 12-20 20-28 12.8-14.4 29.6-21.6 47.2-21.6z",
            "M356.8 519.2h-84c-8.8 0-16-7.2-16-16v-280c0-8.8 7.2-16 16-16h83.2c8.8 0 16 7.2 16 16v280c0.8 8.8-6.4 16-15.2 16zM288.8 487.2h51.2v-248h-51.2v248z",
            "M553.6 519.2h-83.2c-8.8 0-16-7.2-16-16v-280c0-8.8 7.2-16 16-16h83.2c8.8 0 16 7.2 16 16v280c0 8.8-7.2 16-16 16zM486.4 487.2h51.2v-248h-51.2v248z",
            "M512 179.2c-35.2 0-64.8-28.8-64.8-64.8 0-30.4 43.2-92 51.2-104 3.2-4 8-6.4 12.8-6.4s10.4 2.4 12.8 6.4c8.8 12 51.2 73.6 51.2 104 1.6 36-28 64.8-63.2 64.8zM512 48.8c-17.6 26.4-32.8 55.2-32.8 66.4 0 17.6 14.4 32.8 32.8 32.8s32.8-14.4 32.8-32.8c0-11.2-15.2-40-32.8-66.4z",
            "M709.6 179.2c-35.2 0-64.8-28.8-64.8-64.8 0-30.4 43.2-92 51.2-104 3.2-4 8-6.4 12.8-6.4s10.4 2.4 12.8 6.4c8.8 12 51.2 73.6 51.2 104 0.8 36-28 64.8-63.2 64.8zM709.6 48.8c-17.6 26.4-32.8 55.2-32.8 66.4 0 17.6 14.4 32.8 32.8 32.8s32.8-14.4 32.8-32.8c-0.8-11.2-16-40-32.8-66.4z",
            "M314.4 179.2c-35.2 0-64.8-28.8-64.8-64.8 0-30.4 43.2-92 51.2-104 3.2-4 8-6.4 12.8-6.4v0c4.8 0 10.4 2.4 12.8 6.4 8.8 12 51.2 73.6 51.2 104 1.6 36-27.2 64.8-63.2 64.8zM314.4 48.8c-17.6 26.4-32.8 55.2-32.8 66.4 0 17.6 14.4 32.8 32.8 32.8s32.8-14.4 32.8-32.8c0-11.2-15.2-40-32.8-66.4z",
            "M751.2 519.2h-84c-8.8 0-16-7.2-16-16v-280c0-8.8 7.2-16 16-16h83.2c8.8 0 16 7.2 16 16v280c0.8 8.8-6.4 16-15.2 16zM683.2 487.2h51.2v-248h-51.2v248z"
          ],
          "attrs": [
            {},
            {},
            {},
            {},
            {},
            {},
            {},
            {},
            {}
          ],
          "isMulticolor": false,
          "isMulticolor2": false,
          "grid": 0,
          "tags": [
            "35"
          ]
        },
        {
          "id": 6,
          "paths": [
            "M1004 957.6h-984c-8.8 0-16-7.2-16-16v-732.8c0-8.8 7.2-16 16-16h984c8.8 0 16 7.2 16 16v732c0 9.6-7.2 16.8-16 16.8zM36 925.6h952v-700.8h-952v700.8z",
            "M201.6 224.8c-4.8 0-8.8-1.6-12-5.6l-156-188.8c-5.6-7.2-4.8-16.8 2.4-22.4s16.8-4.8 22.4 2.4l146.4 176.8 232-179.2c7.2-5.6 16.8-4 22.4 3.2 4.8 6.4 3.2 16-3.2 21.6l-244.8 188.8c-2.4 2.4-6.4 3.2-9.6 3.2z",
            "M756 842.4h-624.8c-4.8 0-8-3.2-8-8v-518.4c0-4.8 3.2-8 8-8h625.6c4.8 0 8 3.2 8 8v518.4c-0.8 4-4 8-8.8 8zM139.2 826.4h609.6v-502.4h-609.6v502.4z",
            "M880 485.6c-38.4 0-69.6-31.2-69.6-69.6s31.2-69.6 69.6-69.6 69.6 31.2 69.6 69.6-31.2 69.6-69.6 69.6zM880 361.6c-29.6 0-53.6 24-53.6 53.6s24 53.6 53.6 53.6 53.6-24 53.6-53.6-24-53.6-53.6-53.6z",
            "M880 700.8c-38.4 0-69.6-31.2-69.6-69.6s31.2-69.6 69.6-69.6 69.6 31.2 69.6 69.6-31.2 69.6-69.6 69.6zM880 576.8c-29.6 0-53.6 24-53.6 53.6s24 53.6 53.6 53.6 53.6-24 53.6-53.6-24-53.6-53.6-53.6z",
            "M288 1020h-169.6c-8.8 0-16-7.2-16-16v-62.4c0-8.8 7.2-16 16-16h169.6c8.8 0 16 7.2 16 16v62.4c0 8.8-6.4 16-16 16zM134.4 988h137.6v-30.4h-137.6v30.4z",
            "M905.6 1020h-169.6c-8.8 0-16-7.2-16-16v-62.4c0-8.8 7.2-16 16-16h169.6c8.8 0 16 7.2 16 16v62.4c0 8.8-7.2 16-16 16zM752 988h137.6v-30.4h-137.6v30.4z"
          ],
          "attrs": [
            {},
            {},
            {},
            {},
            {},
            {},
            {}
          ],
          "isMulticolor": false,
          "isMulticolor2": false,
          "grid": 0,
          "tags": [
            "2"
          ]
        },
        {
          "id": 5,
          "paths": [
            "M822.4 812c-27.2 0-54.4-5.6-80-16.8-52-23.2-91.2-67.2-108.8-120.8l-0.8-2.4h-242.4l-0.8 2.4c-16.8 53.6-56.8 98.4-108.8 120.8-52 23.2-111.2 22.4-162.4-1.6s-90.4-68.8-106.4-122.4c-16-54.4-8-112.8 21.6-160.8l137.6-220c44-70.4 133.6-96.8 208.8-62.4 32 15.2 58.4 40 75.2 70.4h112.8c16.8-31.2 43.2-56 75.2-70.4 75.2-34.4 164.8-8 208.8 62.4l137.6 220c29.6 48 37.6 106.4 21.6 160.8s-55.2 99.2-106.4 122.4c-25.6 12-53.6 18.4-82.4 18.4zM378.4 639.2h266.4c7.2 0 12.8 4.8 15.2 11.2l4 13.6c14.4 45.6 47.2 82.4 91.2 101.6 43.2 19.2 92.8 18.4 136-0.8 43.2-20 75.2-57.6 88.8-102.4 13.6-45.6 7.2-94.4-18.4-135.2l-137.6-220c-35.2-56.8-108-78.4-168-50.4-28 12.8-51.2 36-64.8 64.8-2.4 5.6-8 9.6-14.4 9.6h-131.2c-6.4 0-12-4-14.4-9.6-13.6-28.8-36-51.2-64.8-64.8-60.8-28-132.8-6.4-168 50.4l-137.6 220c-24.8 40-32 89.6-18.4 135.2s46.4 83.2 88.8 102.4c43.2 20 92.8 20 136 0.8s76.8-56 91.2-101.6l4-13.6c3.2-6.4 9.6-11.2 16-11.2z",
            "M299.2 602.4c-68 0-123.2-55.2-123.2-123.2s55.2-123.2 123.2-123.2c68 0 123.2 55.2 123.2 123.2s-55.2 123.2-123.2 123.2zM299.2 371.2c-59.2 0-107.2 48-107.2 107.2s48 107.2 107.2 107.2 107.2-48 107.2-107.2c0-58.4-48-107.2-107.2-107.2z",
            "M372 486.4h-145.6c-4.8 0-8-3.2-8-8s3.2-8 8-8h145.6c4.8 0 8 3.2 8 8s-4 8-8 8z",
            "M299.2 560c0 0 0 0 0 0-4.8 0-8-4-8-8l0.8-145.6c0-4.8 3.2-8 8-8 0 0 0 0 0 0 4.8 0 8 4 8 8l-0.8 145.6c0 4-4 8-8 8z",
            "M574.4 440.8h-62.4c-4.8 0-8-3.2-8-8s3.2-8 8-8h62.4c4.8 0 8 3.2 8 8 0 4-4 8-8 8z",
            "M574.4 546.4h-62.4c-4.8 0-8-3.2-8-8s3.2-8 8-8h62.4c4.8 0 8 3.2 8 8s-4 8-8 8z",
            "M740.8 439.2c-17.6 0-32-14.4-32-32s14.4-32 32-32c17.6 0 32 14.4 32 32-0.8 18.4-15.2 32-32 32zM740.8 392c-8.8 0-16 7.2-16 16s7.2 16 16 16 16-7.2 16-16-8-16-16-16z",
            "M740.8 581.6c-17.6 0-32-14.4-32-32s14.4-32 32-32c17.6 0 32 14.4 32 32-0.8 17.6-15.2 32-32 32zM740.8 534.4c-8.8 0-16 7.2-16 16s7.2 16 16 16 16-7.2 16-16-8-16-16-16z",
            "M811.2 510.4c-17.6 0-32-14.4-32-32s14.4-32 32-32c17.6 0 32 14.4 32 32 0 18.4-14.4 32-32 32zM811.2 463.2c-8.8 0-16 7.2-16 16s7.2 16 16 16c8.8 0 16-7.2 16-16s-7.2-16-16-16z",
            "M669.6 510.4c-17.6 0-32-14.4-32-32s14.4-32 32-32c17.6 0 32 14.4 32 32-0.8 18.4-14.4 32-32 32zM669.6 463.2c-8.8 0-16 7.2-16 16s7.2 16 16 16 16-7.2 16-16c-0.8-8.8-7.2-16-16-16z"
          ],
          "attrs": [
            {},
            {},
            {},
            {},
            {},
            {},
            {},
            {},
            {},
            {}
          ],
          "isMulticolor": false,
          "isMulticolor2": false,
          "grid": 0,
          "tags": [
            "31"
          ]
        },
        {
          "id": 4,
          "paths": [
            "M1004 931.2h-984c-8.8 0-16-7.2-16-16v-185.6c0-2.4 0.8-4 1.6-6.4l156-363.2c0-0.8 0-1.6 0-1.6v-302.4c0-28.8 24-52 52.8-52h594.4c29.6 0 52.8 23.2 52.8 52v301.6c0 0.8 0 1.6 0 1.6l156.8 363.2c0.8 2.4 1.6 4 1.6 6.4v185.6c0 9.6-7.2 16.8-16 16.8zM36 899.2h952v-166.4l-158.4-368c-2.4-4.8-1.6-10.4 0.8-14.4v-294.4c0-11.2-9.6-20-20.8-20h-594.4c-12 0-20.8 8.8-20.8 20v293.6c2.4 4.8 3.2 9.6 0.8 14.4l-158.4 368v167.2z",
            "M906.4 1020h-83.2c-17.6 0-32-14.4-32-32v-68.8c0-8.8 7.2-16 16-16h116c8.8 0 16 7.2 16 16v68.8c0 17.6-14.4 32-32.8 32zM823.2 935.2v52.8h83.2v-52.8h-83.2z",
            "M200.8 1020h-83.2c-17.6 0-32-14.4-32-32v-68.8c0-8.8 7.2-16 16-16h116c8.8 0 16 7.2 16 16v68.8c-0.8 17.6-15.2 32-32.8 32zM116.8 935.2v52.8h83.2v-52.8h-83.2z",
            "M416 364.8h-139.2c-28 0-51.2-23.2-51.2-51.2v-4.8c0-28 23.2-51.2 51.2-51.2h139.2c28 0 51.2 23.2 51.2 51.2v4.8c-0.8 28.8-23.2 51.2-51.2 51.2zM276.8 274.4c-19.2 0-35.2 16-35.2 35.2v4.8c0 19.2 16 35.2 35.2 35.2h139.2c19.2 0 35.2-16 35.2-35.2v-4.8c0-19.2-16-35.2-35.2-35.2h-139.2z",
            "M747.2 364.8h-139.2c-28 0-51.2-23.2-51.2-51.2v-4.8c0-28 23.2-51.2 51.2-51.2h139.2c28 0 51.2 23.2 51.2 51.2v4.8c-0 28.8-22.4 51.2-51.2 51.2zM608 274.4c-19.2 0-35.2 16-35.2 35.2v4.8c0 19.2 16 35.2 35.2 35.2h139.2c19.2 0 35.2-16 35.2-35.2v-4.8c0-19.2-16-35.2-35.2-35.2h-139.2z",
            "M126.4 485.6c-4 0-7.2-2.4-8-6.4s1.6-8.8 5.6-9.6c3.2-0.8 336.8-77.6 774.4 0 4 0.8 7.2 4.8 6.4 9.6-0.8 4-4.8 7.2-9.6 6.4-433.6-76.8-764.8-0.8-768 0 0.8 0 0 0-0.8 0z",
            "M1004 737.6h-984c-2.4 0-5.6-1.6-6.4-4-1.6-2.4-1.6-4.8-0.8-7.2l160-371.2c1.6-3.2 4-4.8 7.2-4.8h664c3.2 0 6.4 1.6 7.2 4.8l160 371.2c0.8 2.4 0.8 5.6-0.8 7.2-0.8 2.4-4 4-6.4 4zM32 721.6h960l-152.8-355.2h-653.6l-153.6 355.2z"
          ],
          "attrs": [
            {},
            {},
            {},
            {},
            {},
            {},
            {}
          ],
          "isMulticolor": false,
          "isMulticolor2": false,
          "grid": 0,
          "tags": [
            "1"
          ]
        },
        {
          "id": 3,
          "paths": [
            "M198.4 927.2v47.2h-73.6v-47.2h73.6zM198.4 895.2h-73.6c-17.6 0-32 14.4-32 32v47.2c0 17.6 14.4 32 32 32h73.6c17.6 0 32-14.4 32-32v-47.2c0-17.6-14.4-32-32-32v0z",
            "M900 927.2v47.2h-73.6v-47.2h73.6zM900 895.2h-73.6c-17.6 0-32 14.4-32 32v47.2c0 17.6 14.4 32 32 32h73.6c17.6 0 32-14.4 32-32v-47.2c0-17.6-14.4-32-32-32v0z",
            "M788 164c-4 0-8-1.6-11.2-4.8-70.4-70.4-164.8-108.8-264.8-108.8s-194.4 38.4-264.8 109.6c-6.4 6.4-16 6.4-22.4 0s-6.4-16 0-22.4c76.8-77.6 178.4-119.2 287.2-119.2s210.4 42.4 287.2 119.2c6.4 6.4 6.4 16 0 22.4-3.2 2.4-7.2 4-11.2 4z",
            "M701.6 251.2c-4 0-8-1.6-11.2-4.8-47.2-47.2-111.2-73.6-178.4-73.6s-130.4 26.4-178.4 73.6c-6.4 6.4-16 6.4-22.4 0s-6.4-16 0-22.4c53.6-53.6 124.8-83.2 200.8-83.2s147.2 29.6 200.8 83.2c6.4 6.4 6.4 16 0 22.4-3.2 3.2-7.2 4.8-11.2 4.8z",
            "M615.2 337.6c-4 0-8-1.6-11.2-4.8-24.8-24.8-56.8-38.4-92-38.4-34.4 0-67.2 13.6-92 38.4-6.4 6.4-16 6.4-22.4 0s-6.4-16 0-22.4c30.4-30.4 71.2-47.2 114.4-47.2s84 16.8 114.4 47.2c6.4 6.4 6.4 16 0 22.4-3.2 3.2-7.2 4.8-11.2 4.8z",
            "M908.8 920h-793.6c-61.6 0-111.2-49.6-111.2-111.2v-16c0-61.6 49.6-111.2 111.2-111.2h793.6c61.6 0 111.2 49.6 111.2 111.2v16c-0 61.6-49.6 111.2-111.2 111.2zM115.2 713.6c-44 0-79.2 35.2-79.2 79.2v16c0 44 35.2 79.2 79.2 79.2h793.6c44 0 79.2-35.2 79.2-79.2v-16c0-44-35.2-79.2-79.2-79.2h-793.6z",
            "M162.4 859.2c-32 0-58.4-26.4-58.4-58.4s26.4-58.4 58.4-58.4c32 0 58.4 26.4 58.4 58.4 0 32.8-26.4 58.4-58.4 58.4zM162.4 758.4c-23.2 0-42.4 19.2-42.4 42.4s19.2 42.4 42.4 42.4 42.4-19.2 42.4-42.4c0-23.2-19.2-42.4-42.4-42.4z",
            "M681.6 808.8h-66.4c-4.8 0-8-3.2-8-8s3.2-8 8-8h66.4c4.8 0 8 3.2 8 8s-4 8-8 8z",
            "M850.4 808.8h-66.4c-4.8 0-8-3.2-8-8s3.2-8 8-8h66.4c4.8 0 8 3.2 8 8s-4 8-8 8z",
            "M84 178.4c7.2 0 12.8 5.6 12.8 12.8l16.8 480.8c-23.2 2.4-44 12-60 27.2l17.6-508c0-7.2 5.6-12.8 12.8-12.8zM84 146.4c-24 0-44 19.2-44.8 43.2l-17.6 508c-0.8 12.8 6.4 24.8 18.4 30.4 4 1.6 8.8 3.2 13.6 3.2 8 0 16-3.2 21.6-8.8 12-10.4 25.6-17.6 41.6-18.4 16.8-1.6 29.6-16 28.8-32.8l-16.8-480.8c-0.8-24.8-20.8-44-44.8-44v0z"
          ],
          "attrs": [
            {},
            {},
            {},
            {},
            {},
            {},
            {},
            {},
            {},
            {}
          ],
          "isMulticolor": false,
          "isMulticolor2": false,
          "grid": 0,
          "tags": [
            "26"
          ]
        },
        {
          "id": 2,
          "paths": [
            "M700 799.2c-20.8 0-40.8-3.2-61.6-11.2-15.2-5.6-28.8-14.4-41.6-22.4-18.4-11.2-35.2-21.6-53.6-24.8-29.6-4.8-59.2 9.6-90.4 24.8-28.8 14.4-59.2 28.8-92 29.6-29.6 0.8-56.8-9.6-82.4-19.2-6.4-2.4-12.8-4.8-20-7.2-75.2-26.4-157.6-26.4-232.8 0-8 3.2-17.6-1.6-20-9.6-3.2-8 1.6-17.6 9.6-20 81.6-28 172-28 253.6 0.8 7.2 2.4 13.6 4.8 20.8 8 24 9.6 47.2 17.6 70.4 17.6 26.4-0.8 52-12.8 78.4-26.4 34.4-16.8 69.6-34.4 109.6-28 24.8 4 45.6 16.8 65.6 28.8 12.8 8 24.8 15.2 36.8 20 47.2 18.4 100.8 4 152.8-9.6 6.4-1.6 12.8-3.2 18.4-4.8 87.2-22.4 149.6-14.4 191.2 25.6 6.4 6.4 6.4 16 0.8 22.4-6.4 6.4-16 6.4-22.4 0.8-32.8-31.2-85.6-36.8-160.8-17.6-6.4 1.6-12 3.2-18.4 4.8-37.6 7.2-75.2 17.6-112 17.6z",
            "M700 909.6c-20.8 0-40.8-3.2-61.6-11.2-15.2-5.6-28.8-14.4-41.6-22.4-18.4-11.2-35.2-21.6-53.6-24.8-29.6-4.8-59.2 9.6-90.4 24.8-28.8 14.4-59.2 28.8-92 29.6-29.6 0.8-56.8-9.6-82.4-19.2-6.4-2.4-12.8-4.8-20-7.2-75.2-26.4-157.6-26.4-232.8 0-8 3.2-17.6-1.6-20-9.6-3.2-8 1.6-17.6 9.6-20 81.6-28 172-28 253.6 0.8 7.2 2.4 13.6 4.8 20.8 8 24 9.6 47.2 17.6 70.4 17.6 26.4-0.8 52-12.8 78.4-26.4 34.4-16.8 69.6-34.4 109.6-28 24.8 4 45.6 16.8 65.6 28.8 12.8 8 24.8 15.2 36.8 20 47.2 18.4 100.8 4 152.8-9.6 6.4-1.6 12.8-3.2 18.4-4.8 87.2-22.4 149.6-14.4 191.2 25.6 6.4 6.4 6.4 16 0.8 22.4-6.4 6.4-16 6.4-22.4 0.8-32.8-31.2-85.6-36.8-160.8-17.6-6.4 1.6-12 3.2-18.4 4.8-37.6 7.2-75.2 17.6-112 17.6z",
            "M700 1020c-20.8 0-40.8-3.2-61.6-11.2-15.2-5.6-28.8-14.4-41.6-22.4-18.4-11.2-35.2-21.6-53.6-24.8-29.6-4.8-59.2 9.6-90.4 24.8-28.8 14.4-59.2 28.8-92 29.6-29.6 0.8-56.8-9.6-82.4-19.2-6.4-2.4-12.8-4.8-20-7.2-75.2-26.4-157.6-26.4-232.8 0-8 3.2-17.6-1.6-20-9.6-3.2-8 1.6-17.6 9.6-20 81.6-28 172-28 253.6 0.8 7.2 2.4 13.6 4.8 20.8 8 24 9.6 47.2 17.6 70.4 17.6 26.4-0.8 52-12.8 78.4-26.4 34.4-16.8 69.6-34.4 109.6-28 24.8 4 45.6 16.8 65.6 28.8 12.8 8 24.8 15.2 36.8 20 47.2 18.4 100.8 4 152.8-9.6 6.4-1.6 12.8-3.2 18.4-4.8 87.2-22.4 149.6-14.4 191.2 25.6 6.4 6.4 6.4 16 0.8 22.4-6.4 6.4-16 6.4-22.4 0.8-32.8-31.2-85.6-36.8-160.8-17.6-6.4 1.6-12 3.2-18.4 4.8-37.6 7.2-75.2 17.6-112 17.6z",
            "M696.8 379.2h-298.4c-4.8 0-8-3.2-8-8v-88c0-4.8 3.2-8 8-8h298.4c4.8 0 8 3.2 8 8v88c0 4-4 8-8 8zM406.4 363.2h282.4v-72h-282.4v72z",
            "M700 799.2c-1.6 0-2.4 0-4 0-8.8 0-16-7.2-16-16s7.2-16 16-16c22.4 0.8 45.6-4 66.4-8.8v-488c0-98.4 75.2-177.6 167.2-177.6h32c13.6 0 25.6-12.8 25.6-28s-11.2-28-25.6-28h-32c-95.2 0-178.4 65.6-208 163.2-2.4 6.4-8 11.2-15.2 11.2h-290.4c-5.6 0-10.4-3.2-13.6-7.2s-3.2-10.4-0.8-15.2c28.8-58.4 85.6-95.2 148-95.2h32c13.6 0 25.6-12.8 25.6-28s-11.2-28-25.6-28h-32c-120 0-217.6 104.8-217.6 234.4v488c10.4 2.4 19.2 3.2 28 3.2 10.4 0 20.8-2.4 33.6-6.4 8-3.2 17.6 1.6 20 10.4 3.2 8-1.6 17.6-10.4 20-15.2 5.6-29.6 8-43.2 8-15.2 0-30.4-2.4-49.6-8-6.4-2.4-11.2-8-11.2-15.2v-501.6c0-147.2 112-266.4 249.6-266.4h32c32 0 57.6 27.2 57.6 60 0 33.6-25.6 60-57.6 60h-32c-41.6 0-80 20-104.8 54.4h252c36-104.8 128.8-175.2 234.4-175.2h32c32 0 57.6 27.2 57.6 60 0 33.6-25.6 60-57.6 60h-32c-74.4 0-135.2 65.6-135.2 145.6v500.8c0 7.2-4.8 13.6-12 15.2-24.8 8-53.6 14.4-83.2 14.4z",
            "M696.8 790.4c-4.8 0-8-3.2-8-8v-138.4h-282.4v128.8c0 4.8-3.2 8-8 8s-8-3.2-8-8v-136.8c0-4.8 3.2-8 8-8h298.4c4.8 0 8 3.2 8 8v147.2c0 4-4 7.2-8 7.2z",
            "M696.8 555.2h-298.4c-4.8 0-8-3.2-8-8v-88c0-4.8 3.2-8 8-8h298.4c4.8 0 8 3.2 8 8v88c0 4-4 8-8 8zM406.4 539.2h282.4v-72h-282.4v72z"
          ],
          "attrs": [
            {},
            {},
            {},
            {},
            {},
            {},
            {}
          ],
          "isMulticolor": false,
          "isMulticolor2": false,
          "grid": 0,
          "tags": [
            "30"
          ]
        },
        {
          "id": 1,
          "paths": [
            "M678.4 737.6c-2.4 0-4.8-0.8-6.4-1.6-8-4-12-12.8-8-20.8l68-150.4c4-8 12.8-12 20.8-8s12 12.8 8 20.8l-68 150.4c-2.4 6.4-8 9.6-14.4 9.6z",
            "M941.6 737.6c-6.4 0-12-3.2-14.4-9.6l-68-150.4c-4-8 0-17.6 8-20.8s17.6 0 20.8 8l68 150.4c4 8 0 17.6-8 20.8-1.6 1.6-4 1.6-6.4 1.6z",
            "M932 584h-268.8c-8.8 0-16-7.2-16-16s7.2-16 16-16h256l68.8-260.8c2.4-8.8 11.2-13.6 19.2-11.2 8.8 2.4 13.6 11.2 11.2 19.2l-72 272.8c-0.8 7.2-7.2 12-14.4 12z",
            "M345.6 737.6c-6.4 0-12-3.2-14.4-9.6l-68-150.4c-4-8 0-17.6 8-20.8s17.6 0 20.8 8l68 150.4c4 8 0 17.6-8 20.8-1.6 1.6-4 1.6-6.4 1.6z",
            "M82.4 737.6c-2.4 0-4.8-0.8-6.4-1.6-8-4-12-12.8-8-20.8l68-150.4c4-8 12.8-12 20.8-8s12 12.8 8 20.8l-68 150.4c-2.4 6.4-8.8 9.6-14.4 9.6z",
            "M360.8 584h-268.8c-7.2 0-13.6-4.8-15.2-12l-72-272.8c-2.4-8 2.4-16.8 11.2-19.2s17.6 3.2 19.2 11.2l68.8 260.8h256c8.8 0 16 7.2 16 16s-6.4 16-15.2 16z",
            "M812 366.4h-600c-8.8 0-16-7.2-16-16l-0.8-74.4c0-4 1.6-8 4.8-11.2s7.2-4.8 11.2-4.8h601.6c4 0 8 1.6 11.2 4.8s4.8 7.2 4.8 11.2l-0.8 74.4c0 8.8-7.2 16-16 16zM227.2 334.4h568.8v-42.4h-568.8v42.4z",
            "M557.6 702.4h-91.2c-8.8 0-16-7.2-16-16v-336c0-8.8 7.2-16 16-16h91.2c8.8 0 16 7.2 16 16v335.2c0 9.6-7.2 16.8-16 16.8zM482.4 670.4h59.2v-304h-59.2v304z",
            "M603.2 703.2v28.8h-182.4v-28.8h182.4zM603.2 671.2h-182.4c-17.6 0-32 14.4-32 32v28.8c0 17.6 14.4 32 32 32h182.4c17.6 0 32-14.4 32-32v-28.8c0-18.4-14.4-32-32-32v0z"
          ],
          "attrs": [
            {},
            {},
            {},
            {},
            {},
            {},
            {},
            {},
            {}
          ],
          "isMulticolor": false,
          "isMulticolor2": false,
          "grid": 0,
          "tags": [
            "136"
          ]
        },
        {
          "id": 0,
          "paths": [
            "M388 219.2c-59.2 0-108-48-108-108s48-108 108-108c60 0.8 108 48.8 108 108.8s-48 107.2-108 107.2zM388 36c-41.6 0-76 33.6-76 76s33.6 76 76 76c41.6 0 76-33.6 76-76s-34.4-76-76-76z",
            "M358.4 1020c-156 0-283.2-127.2-283.2-283.2 0-131.2 88.8-244 216-275.2 8.8-2.4 17.6 3.2 19.2 12 2.4 8.8-3.2 17.6-12 19.2-112.8 28-191.2 128-191.2 244 0 138.4 112.8 251.2 251.2 251.2 96 0 184.8-56 226.4-142.4 4-8 13.6-11.2 21.6-7.2s11.2 13.6 7.2 21.6c-46.4 96.8-146.4 160-255.2 160z",
            "M798.4 1008c-3.2 0-6.4 0-10.4-0.8-16.8-2.4-32.8-12.8-42.4-27.2l-173.6-256h-184c-35.2 0-63.2-28-63.2-63.2v-342.4c0-35.2 28-63.2 63.2-63.2s63.2 28 63.2 63.2v83.2h179.2c35.2 0 63.2 28 63.2 63.2s-28 63.2-63.2 63.2h-179.2v69.6h154.4c20.8 0 40.8 10.4 52 28l155.2 228.8 33.6-26.4c28-21.6 67.2-16 88.8 11.2 0 0 0 0 0 0 10.4 13.6 14.4 29.6 12.8 46.4-2.4 16.8-10.4 32-24 41.6l-87.2 67.2c-10.4 8.8-24.8 13.6-38.4 13.6zM388 287.2c-17.6 0-31.2 14.4-31.2 31.2v341.6c0 17.6 14.4 31.2 31.2 31.2h192.8c5.6 0 10.4 2.4 13.6 7.2l178.4 264c4.8 7.2 12.8 12 20.8 13.6s17.6-0.8 24-6.4l87.2-67.2c6.4-4.8 11.2-12.8 12-20.8s-0.8-16.8-6.4-23.2c-10.4-13.6-30.4-16-44-5.6l-47.2 36c-3.2 2.4-8 4-12 3.2s-8-3.2-10.4-7.2l-164.8-241.6c-5.6-8.8-15.2-13.6-25.6-13.6h-171.2c-8.8 0-16-7.2-16-16v-101.6c0-8.8 7.2-16 16-16h195.2c17.6 0 31.2-14.4 31.2-31.2 0-17.6-14.4-31.2-31.2-31.2h-195.2c-8.8 0-16-7.2-16-16v-99.2c0-16.8-13.6-31.2-31.2-31.2z"
          ],
          "attrs": [
            {},
            {},
            {}
          ],
          "isMulticolor": false,
          "isMulticolor2": false,
          "grid": 0,
          "tags": [
            "13"
          ]
        }
      ],
      "invisible": false,
      "colorThemes": []
    }
  ],
  "uid": -1,
  "preferences": {
    "showGlyphs": true,
    "showCodes": true,
    "showQuickUse": true,
    "showQuickUse2": false,
    "showSVGs": true,
    "fontPref": {
      "prefix": "icon-",
      "metadata": {
        "fontFamily": "icomoon"
      },
      "metrics": {
        "emSize": 1024,
        "baseline": 6.25,
        "whitespace": 50
      },
      "embed": false
    },
    "imagePref": {
      "prefix": "icon-",
      "png": true,
      "useClassSelector": true,
      "color": 0,
      "bgColor": 16777215,
      "name": "icomoon",
      "classSelector": ".icon"
    },
    "historySize": 50
  }
}